Teste de Desempeño/Dualpex 071 performance test/Dualpex 071 performance test data CSV/T0001.CSV

Model,DPO2012
Firmware Version,1.25

Point Format,Y,
Horizontal Units,S,
Horizontal Scale,0.0001,
Sample Interval,8e-09,
Filter Frequency,1e+08,
Record Length,125000,
Gating,0.0% to 100.0%,
Probe Attenuation,10,
Vertical Units,V,
Vertical Offset,0,
Vertical Scale,0.2,
Label,,
TIME,CH2,CH2 Peak Detect
-4.84000e-04,0.012,0.02
-4.83992e-04,0.012,-0.004
-4.83984e-04,0.012,0.02
-4.83976e-04,0.004,-0.012
-4.83968e-04,0.004,0.012
-4.83960e-04,0.004,-0.012
-4.83952e-04,0.012,0.02
-4.83944e-04,0.012,-0.012
-4.83936e-04,0.012,0.012
-4.83928e-04,-0.004,-0.004
-4.83920e-04,0.004,0.012
-4.83912e-04,0.004,-0.012
-4.83904e-04,0.012,0.012
-4.83896e-04,0.004,-0.004
-4.83888e-04,0.004,0.02
-4.83880e-04,0.02,-0.004
-4.83872e-04,0.012,0.004
-4.83864e-04,0.004,-0.004
-4.83856e-04,-0.004,0.02
-4.83848e-04,0.02,-0.012
-4.83840e-04,0.004,0.004
-4.83832e-04,0.004,-0.012
-4.83824e-04,0.012,0.028
-4.83816e-04,0.012,-0.012
-4.83808e-04,-0.004,0.012
-4.83800e-04,0.004,-0.004
-4.83792e-04,0.012,0.012
-4.83784e-04,0.02,-0.02
-4.83776e-04,-0.004,0.012
-4.83768e-04,-0.012,-0.012
-4.83760e-04,0.004,0.02
-4.83752e-04,0.028,-0.02
-4.83744e-04,0.02,0.012
-4.83736e-04,0.004,-0.012
-4.83728e-04,0.012,0.028
-4.83720e-04,0.02,-0.004
-4.83712e-04,0.02,0.02
-4.83704e-04,0.012,0.004
-4.83696e-04,0.02,0.028
-4.83688e-04,0.012,-0.012
-4.83680e-04,0.004,0.02
-4.83672e-04,0.004,-0.004
-4.83664e-04,0.004,0.012
-4.83656e-04,0.012,-0.02
-4.83648e-04,0.012,0.012
-4.83640e-04,0.004,-0.004
-4.83632e-04,0.012,0.012
-4.83624e-04,0.004,-0.012
-4.83616e-04,-0.004,0.012
-4.83608e-04,0.012,-0.004
-4.83600e-04,0.02,0.028
-4.83592e-04,0.012,-0.02
-4.83584e-04,0.004,0.02
-4.83576e-04,0.02,-0.004
-4.83568e-04,0.012,0.02
-4.83560e-04,0.02,0.004
-4.83552e-04,0.012,0.02
-4.83544e-04,0.012,-0.004
-4.83536e-04,0.012,0.02
-4.83528e-04,0.012,-0.004
-4.83520e-04,0.004,0.02
-4.83512e-04,0.012,-0.012
-4.83504e-04,0.012,0.02
-4.83496e-04,0.012,-0.012
-4.83488e-04,0.012,0.012
-4.83480e-04,0.004,-0.004
-4.83472e-04,0.012,0.012
-4.83464e-04,0.012,-0.004
-4.83456e-04,0.012,0.012
-4.83448e-04,0.012,-0.004
-4.83440e-04,0.02,0.028
-4.83432e-04,0.004,-0.004
-4.83424e-04,0.004,0.02
-4.83416e-04,0.004,-0.004
-4.83408e-04,0.012,0.028
-4.83400e-04,0.02,-0.004
-4.83392e-04,0.012,0.012
-4.83384e-04,0.004,-0.004
-4.83376e-04,-0.004,0.02
-4.83368e-04,0.004,-0.004
-4.83360e-04,0.004,0.02
-4.83352e-04,0.004,-0.012
-4.83344e-04,0.004,0.004
-4.83336e-04,-0.004,-0.012
-4.83328e-04,-0.004,0.012
-4.83320e-04,0.012,-0.012
-4.83312e-04,0.028,0.012
-4.83304e-04,0.012,-0.02
-4.83296e-04,0.012,0.028
-4.83288e-04,0.012,-0.004
-4.83280e-04,0.012,0.02
-4.83272e-04,0.004,0.004
-4.83264e-04,0.004,0.028
-4.83256e-04,0.012,-0.012
-4.83248e-04,0.004,0.012
-4.83240e-04,0.004,-0.004
-4.83232e-04,-0.004,0.012
-4.83224e-04,0.012,-0.012
-4.83216e-04,0.02,0.012
-4.83208e-04,0.012,-0.012
-4.83200e-04,0.012,0.02
-4.83192e-04,0.004,-0.004
-4.83184e-04,0.004,0.012
-4.83176e-04,0.004,-0.004
-4.83168e-04,0.012,0.02
-4.83160e-04,0.02,-0.012
-4.83152e-04,0.012,0.012
-4.83144e-04,0.004,0.004
-4.83136e-04,0.012,0.02
-4.83128e-04,0.012,-0.004
-4.83120e-04,0.012,0.012
-4.83112e-04,0.012,0.004
-4.83104e-04,0.004,0.028
-4.83096e-04,0.012,-0.012
-4.83088e-04,-0.004,0.012
-4.83080e-04,-0.004,-0.012
-4.83072e-04,0.012,0.012
-4.83064e-04,0.012,-0.02
-4.83056e-04,0.004,0.012
-4.83048e-04,0.012,-0.012
-4.83040e-04,0.012,0.012
-4.83032e-04,0.02,-0.004
-4.83024e-04,0.012,0.02
-4.83016e-04,0.004,0.004
-4.83008e-04,0.004,0.036
-4.83000e-04,0.004,-0.012
-4.82992e-04,-0.004,0.012
-4.82984e-04,-0.004,-0.012
-4.82976e-04,0.012,0.012
-4.82968e-04,0.02,-0.012
-4.82960e-04,0.02,0.012
-4.82952e-04,0.028,0.004
-4.82944e-04,0.02,0.02
-4.82936e-04,0.004,0.012
-4.82928e-04,-0.004,0.028
-4.82920e-04,0.004,-0.012
-4.82912e-04,-0.004,0.02
-4.82904e-04,-0.004,-0.02
-4.82896e-04,-0.012,0.004
-4.82888e-04,-0.012,-0.028
-4.82880e-04,0.012,-0.004
-4.82872e-04,0.028,-0.028
-4.82864e-04,0.028,0.02
-4.82856e-04,0.02,-0.004
-4.82848e-04,0.02,0.036
-4.82840e-04,0.012,0.012
-4.82832e-04,0.004,0.028
-4.82824e-04,-0.004,-0.004
-4.82816e-04,0.004,0.028
-4.82808e-04,-0.012,-0.012
-4.82800e-04,-0.004,0.004
-4.82792e-04,-0.004,-0.02
-4.82784e-04,0.02,0.004
-4.82776e-04,0.028,-0.02
-4.82768e-04,0.02,0.02
-4.82760e-04,0.02,0.004
-4.82752e-04,0.02,0.028
-4.82744e-04,0.004,0.004
-4.82736e-04,-0.004,0.02
-4.82728e-04,-0.004,-0.012
-4.82720e-04,0.004,0.012
-4.82712e-04,0.012,-0.012
-4.82704e-04,0.02,0.012
-4.82696e-04,0.02,-0.004
-4.82688e-04,0.028,0.02
-4.82680e-04,0.028,0.004
-4.82672e-04,0.02,0.028
-4.82664e-04,0.028,0.004
-4.82656e-04,0.004,0.028
-4.82648e-04,-0.012,-0.004
-4.82640e-04,-0.012,0.028
-4.82632e-04,-0.012,-0.02
-4.82624e-04,0.004,0.012
-4.82616e-04,-0.004,-0.02
-4.82608e-04,0.012,0.004
-4.82600e-04,0.02,-0.02
-4.82592e-04,0.02,0.012
-4.82584e-04,0.02,0.004
-4.82576e-04,0.012,0.028
-4.82568e-04,0.012,-0.004
-4.82560e-04,0.02,0.02
-4.82552e-04,0.012,0.004
-4.82544e-04,-0.004,0.028
-4.82536e-04,0.012,-0.012
-4.82528e-04,0.004,0.012
-4.82520e-04,0.004,-0.004
-4.82512e-04,0.012,0.02
-4.82504e-04,0.02,-0.012
-4.82496e-04,0.004,0.012
-4.82488e-04,0.004,-0.012
-4.82480e-04,-0.004,0.02
-4.82472e-04,0.012,-0.012
-4.82464e-04,0.012,0.012
-4.82456e-04,-0.004,-0.012
-4.82448e-04,0.004,0.012
-4.82440e-04,0.012,-0.02
-4.82432e-04,0.004,0.012
-4.82424e-04,0.012,-0.004
-4.82416e-04,0.012,0.02
-4.82408e-04,0.012,-0.012
-4.82400e-04,0.012,0.02
-4.82392e-04,0.012,0.004
-4.82384e-04,0.004,0.02
-4.82376e-04,0.012,-0.004
-4.82368e-04,0.004,0.012
-4.82360e-04,0.012,-0.012
-4.82352e-04,0.004,0.012
-4.82344e-04,0.004,-0.02
-4.82336e-04,-0.004,0.012
-4.82328e-04,-0.004,-0.012
-4.82320e-04,0.012,0.012
-4.82312e-04,0.02,-0.02
-4.82304e-04,0.012,0.012
-4.82296e-04,0.004,-0.004
-4.82288e-04,0.012,0.02
-4.82280e-04,0.012,-0.004
-4.82272e-04,0.028,0.028
-4.82264e-04,0.02,-0.004
-4.82256e-04,0.02,0.028
-4.82248e-04,0.02,0.004
-4.82240e-04,0.012,0.02
-4.82232e-04,0.012,-0.004
-4.82224e-04,0.012,0.028
-4.82216e-04,0.012,-0.004
-4.82208e-04,-0.004,0.012
-4.82200e-04,-0.004,-0.012
-4.82192e-04,0.004,0.02
-4.82184e-04,0.012,-0.012
-4.82176e-04,0.004,0.004
-4.82168e-04,0.012,-0.004
-4.82160e-04,0.012,0.012
-4.82152e-04,0.012,-0.012
-4.82144e-04,0.012,0.012
-4.82136e-04,0.012,0.004
-4.82128e-04,0.028,0.02
-4.82120e-04,0.02,-0.004
-4.82112e-04,0.02,0.028
-4.82104e-04,-0.004,-0.004
-4.82096e-04,0.004,0.02
-4.82088e-04,0.004,-0.012
-4.82080e-04,0.004,0.02
-4.82072e-04,0.012,-0.012
-4.82064e-04,0.004,0.012
-4.82056e-04,-0.004,-0.012
-4.82048e-04,0.004,0.02
-4.82040e-04,0.012,-0.012
-4.82032e-04,0.02,0.012
-4.82024e-04,0.012,-0.012
-4.82016e-04,0.004,0.02
-4.82008e-04,0.02,-0.012
-4.82000e-04,0.012,0.012
-4.81992e-04,0.012,0.004
-4.81984e-04,0.012,0.02
-4.81976e-04,0.02,-0.004
-4.81968e-04,0.02,0.02
-4.81960e-04,0.004,-0.012
-4.81952e-04,-0.004,0.02
-4.81944e-04,0.004,-0.004
-4.81936e-04,0.012,0.02
-4.81928e-04,0.004,-0.004
-4.81920e-04,0.004,0.02
-4.81912e-04,0.004,-0.012
-4.81904e-04,0.012,0.012
-4.81896e-04,0.004,-0.004
-4.81888e-04,0.004,0.02
-4.81880e-04,0.02,-0.012
-4.81872e-04,0.012,0.012
-4.81864e-04,0.004,-0.004
-4.81856e-04,0.004,0.02
-4.81848e-04,0.012,-0.012
-4.81840e-04,0.012,0.012
-4.81832e-04,0.012,-0.004
-4.81824e-04,0.012,0.02
-4.81816e-04,0.012,-0.004
-4.81808e-04,0.004,0.012
-4.81800e-04,0.004,-0.004
-4.81792e-04,0.012,0.012
-4.81784e-04,0.012,-0.012
-4.81776e-04,0.012,0.012
-4.81768e-04,0.004,-0.004
-4.81760e-04,0.004,0.012
-4.81752e-04,0.004,-0.012
-4.81744e-04,0.004,0.012
-4.81736e-04,0.004,-0.004
-4.81728e-04,0.012,0.02
-4.81720e-04,0.012,-0.02
-4.81712e-04,0.004,0.012
-4.81704e-04,-0.004,-0.004
-4.81696e-04,0.02,0.028
-4.81688e-04,0.02,-0.012
-4.81680e-04,0.004,0.02
-4.81672e-04,0.012,-0.004
-4.81664e-04,0.012,0.02
-4.81656e-04,0.012,-0.004
-4.81648e-04,0.004,0.012
-4.81640e-04,0.02,-0.004
-4.81632e-04,0.012,0.02
-4.81624e-04,0.012,-0.012
-4.81616e-04,-0.004,0.02
-4.81608e-04,0.004,-0.004
-4.81600e-04,0.004,0.02
-4.81592e-04,0.012,-0.004
-4.81584e-04,0.012,0.012
-4.81576e-04,0.004,-0.012
-4.81568e-04,0.004,0.02
-4.81560e-04,0.004,-0.012
-4.81552e-04,-0.004,0.012
-4.81544e-04,0.004,-0.012
-4.81536e-04,0.02,0.02
-4.81528e-04,0.012,-0.012
-4.81520e-04,-0.004,0.02
-4.81512e-04,-0.004,-0.012
-4.81504e-04,0.012,0.02
-4.81496e-04,0.02,-0.012
-4.81488e-04,0.02,0.012
-4.81480e-04,0.02,0.004
-4.81472e-04,0.012,0.02
-4.81464e-04,0.044,0.004
-4.81456e-04,0.02,0.028
-4.81448e-04,0.028,0.004
-4.81440e-04,0.004,0.052
-4.81432e-04,0.028,-0.004
-4.81424e-04,0.012,0.028
-4.81416e-04,-0.004,-0.004
-4.81408e-04,-0.02,0.028
-4.81400e-04,-0.004,-0.02
-4.81392e-04,0.004,0.004
-4.81384e-04,0.028,-0.028
-4.81376e-04,0.004,0.004
-4.81368e-04,0.004,-0.02
-4.81360e-04,0.02,0.028
-4.81352e-04,0.02,-0.004
-4.81344e-04,0.02,0.028
-4.81336e-04,0.02,0.004
-4.81328e-04,0.012,0.028
-4.81320e-04,0.012,-0.004
-4.81312e-04,0.004,0.028
-4.81304e-04,-0.004,0.004
-4.81296e-04,-0.004,0.02
-4.81288e-04,-0.004,-0.02
-4.81280e-04,-0.004,0.004
-4.81272e-04,-0.004,-0.02
-4.81264e-04,0.004,0.012
-4.81256e-04,0.012,-0.02
-4.81248e-04,0.012,0.004
-4.81240e-04,0.004,-0.004
-4.81232e-04,0.012,0.02
-4.81224e-04,0.012,-0.004
-4.81216e-04,0.004,0.02
-4.81208e-04,0.004,0.004
-4.81200e-04,0.02,0.02
-4.81192e-04,0.02,-0.004
-4.81184e-04,0.004,0.02
-4.81176e-04,0.004,-0.004
-4.81168e-04,0.012,0.02
-4.81160e-04,0.02,-0.004
-4.81152e-04,0.012,0.02
-4.81144e-04,-0.004,-0.004
-4.81136e-04,0.012,0.02
-4.81128e-04,0.012,-0.012
-4.81120e-04,0.004,0.012
-4.81112e-04,0.004,-0.004
-4.81104e-04,0.012,0.02
-4.81096e-04,0.012,-0.004
-4.81088e-04,0.004,0.012
-4.81080e-04,-0.004,-0.004
-4.81072e-04,0.012,0.02
-4.81064e-04,0.012,-0.012
-4.81056e-04,0.004,0.012
-4.81048e-04,0.004,-0.004
-4.81040e-04,0.012,0.012
-4.81032e-04,0.012,-0.004
-4.81024e-04,0.004,0.012
-4.81016e-04,0.012,-0.004
-4.81008e-04,0.004,0.02
-4.81000e-04,0.012,-0.004
-4.80992e-04,0.012,0.012
-4.80984e-04,0.012,-0.012
-4.80976e-04,0.012,0.02
-4.80968e-04,0.004,-0.012
-4.80960e-04,0.004,0.012
-4.80952e-04,0.012,-0.004
-4.80944e-04,0.012,0.02
-4.80936e-04,-0.004,-0.012
-4.80928e-04,-0.004,0.012
-4.80920e-04,0.004,-0.012
-4.80912e-04,0.012,0.02
-4.80904e-04,0.012,-0.012
-4.80896e-04,0.004,0.02
-4.80888e-04,0.004,-0.012
-4.80880e-04,0.012,0.012
-4.80872e-04,0.012,-0.004
-4.80864e-04,0.004,0.012
-4.80856e-04,0.004,-0.012
-4.80848e-04,0.012,0.02
-4.80840e-04,0.012,-0.004
-4.80832e-04,0.004,0.012
-4.80824e-04,0.012,-0.012
-4.80816e-04,0.012,0.02
-4.80808e-04,-0.004,-0.004
-4.80800e-04,0.004,0.02
-4.80792e-04,0.012,-0.02
-4.80784e-04,0.012,0.012
-4.80776e-04,-0.004,-0.012
-4.80768e-04,0.004,0.02
-4.80760e-04,0.02,-0.012
-4.80752e-04,0.012,0.028
-4.80744e-04,0.004,-0.012
-4.80736e-04,0.012,0.02
-4.80728e-04,0.012,-0.004
-4.80720e-04,0.012,0.02
-4.80712e-04,0.012,-0.004
-4.80704e-04,0.02,0.02
-4.80696e-04,0.028,-0.004
-4.80688e-04,0.012,0.02
-4.80680e-04,0.004,0.004
-4.80672e-04,-0.004,0.028
-4.80664e-04,0.004,-0.012
-4.80656e-04,0.012,0.012
-4.80648e-04,0.004,-0.004
-4.80640e-04,0.004,0.012
-4.80632e-04,0.004,-0.004
-4.80624e-04,0.004,0.012
-4.80616e-04,0.012,-0.004
-4.80608e-04,0.012,0.012
-4.80600e-04,0.02,-0.004
-4.80592e-04,0.02,0.012
-4.80584e-04,0.012,-0.004
-4.80576e-04,0.004,0.02
-4.80568e-04,0.012,-0.004
-4.80560e-04,0.012,0.02
-4.80552e-04,0.012,-0.004
-4.80544e-04,0.012,0.02
-4.80536e-04,0.02,-0.012
-4.80528e-04,0.004,0.012
-4.80520e-04,0.004,-0.004
-4.80512e-04,0.012,0.02
-4.80504e-04,0.012,-0.012
-4.80496e-04,0.004,0.012
-4.80488e-04,0.004,-0.004
-4.80480e-04,0.012,0.012
-4.80472e-04,0.004,-0.012
-4.80464e-04,-0.004,0.012
-4.80456e-04,0.012,-0.004
-4.80448e-04,0.012,0.012
-4.80440e-04,0.02,-0.012
-4.80432e-04,0.004,0.02
-4.80424e-04,-0.004,-0.012
-4.80416e-04,0.012,0.028
-4.80408e-04,0.02,-0.012
-4.80400e-04,0.012,0.012
-4.80392e-04,0.02,-0.004
-4.80384e-04,0.012,0.02
-4.80376e-04,0.004,-0.012
-4.80368e-04,-0.004,0.02
-4.80360e-04,0.012,-0.004
-4.80352e-04,0.012,0.02
-4.80344e-04,0.012,-0.012
-4.80336e-04,0.004,0.012
-4.80328e-04,-0.004,-0.004
-4.80320e-04,0.012,0.012
-4.80312e-04,0.012,-0.02
-4.80304e-04,0.012,0.012
-4.80296e-04,0.012,-0.004
-4.80288e-04,0.012,0.012
-4.80280e-04,0.004,-0.012
-4.80272e-04,-0.004,0.02
-4.80264e-04,0.02,-0.004
-4.80256e-04,0.012,0.02
-4.80248e-04,0.012,-0.02
-4.80240e-04,0.004,0.02
-4.80232e-04,0.012,-0.004
-4.80224e-04,0.012,0.02
-4.80216e-04,0.012,-0.004
-4.80208e-04,0.004,0.028
-4.80200e-04,0.012,-0.004
-4.80192e-04,0.012,0.012
-4.80184e-04,0.004,-0.004
-4.80176e-04,0.004,0.02
-4.80168e-04,0.004,-0.004
-4.80160e-04,-0.004,0.012
-4.80152e-04,-0.004,-0.012
-4.80144e-04,0.004,0.012
-4.80136e-04,0.012,-0.012
-4.80128e-04,0.004,0.004
-4.80120e-04,0.012,-0.004
-4.80112e-04,0.012,0.02
-4.80104e-04,0.02,-0.004
-4.80096e-04,0.004,0.02
-4.80088e-04,0.004,-0.012
-4.80080e-04,-0.004,0.02
-4.80072e-04,0.004,-0.012
-4.80064e-04,0.004,0.012
-4.80056e-04,0.012,-0.02
-4.80048e-04,0.012,0.012
-4.80040e-04,0.004,-0.012
-4.80032e-04,0.012,0.012
-4.80024e-04,0.012,-0.004
-4.80016e-04,0.02,0.02
-4.80008e-04,0.012,-0.004
-4.80000e-04,0.012,0.02
-4.79992e-04,0.004,-0.004
-4.79984e-04,-0.004,0.02
-4.79976e-04,0.004,-0.012
-4.79968e-04,0.004,0.012
-4.79960e-04,0.012,-0.012
-4.79952e-04,0.012,0.012
-4.79944e-04,0.012,-0.012
-4.79936e-04,0.012,0.012
-4.79928e-04,0.004,-0.004
-4.79920e-04,0.02,0.02
-4.79912e-04,0.02,-0.004
-4.79904e-04,0.004,0.02
-4.79896e-04,-0.004,-0.012
-4.79888e-04,0.004,0.02
-4.79880e-04,0.004,-0.02
-4.79872e-04,0.02,0.02
-4.79864e-04,0.004,-0.004
-4.79856e-04,0.004,0.02
-4.79848e-04,0.012,-0.012
-4.79840e-04,0.004,0.012
-4.79832e-04,0.012,-0.004
-4.79824e-04,0.012,0.02
-4.79816e-04,0.012,-0.004
-4.79808e-04,0.004,0.02
-4.79800e-04,-0.004,0.004
-4.79792e-04,-0.004,0.02
-4.79784e-04,0.004,-0.012
-4.79776e-04,0.012,0.004
-4.79768e-04,0.004,-0.012
-4.79760e-04,0.012,0.02
-4.79752e-04,0.012,-0.004
-4.79744e-04,0.004,0.012
-4.79736e-04,0.004,-0.004
-4.79728e-04,0.02,0.02
-4.79720e-04,0.012,-0.004
-4.79712e-04,0.004,0.02
-4.79704e-04,-0.004,-0.012
-4.79696e-04,0.004,0.02
-4.79688e-04,0.004,-0.02
-4.79680e-04,-0.004,0.012
-4.79672e-04,0.012,-0.004
-4.79664e-04,0.012,0.012
-4.79656e-04,0.012,-0.02
-4.79648e-04,-0.012,0.012
-4.79640e-04,0.004,-0.02
-4.79632e-04,0.012,0.02
-4.79624e-04,0.012,-0.02
-4.79616e-04,0.004,0.012
-4.79608e-04,0.012,-0.012
-4.79600e-04,0.012,0.012
-4.79592e-04,0.012,-0.004
-4.79584e-04,0.004,0.02
-4.79576e-04,0.012,-0.004
-4.79568e-04,0.028,0.012
-4.79560e-04,0.012,-0.012
-4.79552e-04,-0.004,0.028
-4.79544e-04,0.004,-0.02
-4.79536e-04,0.012,0.02
-4.79528e-04,0.012,-0.004
-4.79520e-04,0.012,0.012
-4.79512e-04,0.012,-0.004
-4.79504e-04,0.012,0.012
-4.79496e-04,0.004,-0.004
-4.79488e-04,-0.004,0.02
-4.79480e-04,0.012,-0.012
-4.79472e-04,0.012,0.02
-4.79464e-04,0.004,-0.012
-4.79456e-04,0.012,0.012
-4.79448e-04,0.012,-0.004
-4.79440e-04,0.012,0.02
-4.79432e-04,0.012,0.004
-4.79424e-04,0.012,0.02
-4.79416e-04,0.02,-0.004
-4.79408e-04,0.012,0.012
-4.79400e-04,-0.004,0.004
-4.79392e-04,-0.004,0.02
-4.79384e-04,0.004,-0.012
-4.79376e-04,0.004,0.012
-4.79368e-04,-0.004,-0.02
-4.79360e-04,0.012,0.012
-4.79352e-04,0.004,-0.02
-4.79344e-04,0.012,0.012
-4.79336e-04,0.004,-0.004
-4.79328e-04,0.012,0.02
-4.79320e-04,0.012,-0.012
-4.79312e-04,0.012,0.012
-4.79304e-04,0.012,-0.004
-4.79296e-04,-0.004,0.012
-4.79288e-04,0.004,-0.012
-4.79280e-04,0.012,0.012
-4.79272e-04,0.012,-0.012
-4.79264e-04,0.012,0.012
-4.79256e-04,0.012,-0.012
-4.79248e-04,0.004,0.02
-4.79240e-04,0.004,-0.004
-4.79232e-04,0.012,0.02
-4.79224e-04,0.004,-0.012
-4.79216e-04,0.004,0.012
-4.79208e-04,-0.004,-0.004
-4.79200e-04,0.012,0.02
-4.79192e-04,0.004,-0.012
-4.79184e-04,-0.004,0.012
-4.79176e-04,0.004,-0.012
-4.79168e-04,0.02,0.012
-4.79160e-04,0.02,-0.012
-4.79152e-04,0.004,0.02
-4.79144e-04,-0.004,-0.004
-4.79136e-04,0.012,0.02
-4.79128e-04,0.02,-0.012
-4.79120e-04,0.004,0.012
-4.79112e-04,0.004,-0.004
-4.79104e-04,0.004,0.02
-4.79096e-04,0.012,-0.012
-4.79088e-04,0.012,0.02
-4.79080e-04,0.004,-0.004
-4.79072e-04,0.004,0.02
-4.79064e-04,0.004,-0.012
-4.79056e-04,0.004,0.004
-4.79048e-04,-0.004,-0.004
-4.79040e-04,0.004,0.012
-4.79032e-04,0.012,-0.012
-4.79024e-04,0.012,0.004
-4.79016e-04,0.012,-0.004
-4.79008e-04,0.012,0.012
-4.79000e-04,0.012,-0.012
-4.78992e-04,0.012,0.012
-4.78984e-04,0.012,-0.004
-4.78976e-04,0.02,0.02
-4.78968e-04,0.012,-0.004
-4.78960e-04,0.004,0.02
-4.78952e-04,0.004,-0.004
-4.78944e-04,0.012,0.02
-4.78936e-04,0.004,-0.004
-4.78928e-04,0.004,0.02
-4.78920e-04,0.004,-0.012
-4.78912e-04,0.012,0.012
-4.78904e-04,0.012,-0.012
-4.78896e-04,0.004,0.012
-4.78888e-04,0.004,-0.004
-4.78880e-04,0.012,0.012
-4.78872e-04,0.012,-0.004
-4.78864e-04,0.004,0.012
-4.78856e-04,0.02,-0.004
-4.78848e-04,0.012,0.02
-4.78840e-04,0.012,-0.004
-4.78832e-04,-0.004,0.028
-4.78824e-04,0.012,-0.004
-4.78816e-04,0.012,0.028
-4.78808e-04,0.012,-0.012
-4.78800e-04,0.004,0.012
-4.78792e-04,-0.004,-0.004
-4.78784e-04,0.012,0.012
-4.78776e-04,0.012,-0.012
-4.78768e-04,0.012,0.02
-4.78760e-04,0.004,-0.004
-4.78752e-04,-0.004,0.012
-4.78744e-04,-0.004,-0.012
-4.78736e-04,0.004,0.012
-4.78728e-04,-0.004,-0.028
-4.78720e-04,-0.004,0.004
-4.78712e-04,-0.004,-0.02
-4.78704e-04,0.012,0.012
-4.78696e-04,0.012,-0.012
-4.78688e-04,0.02,0.012
-4.78680e-04,0.004,-0.012
-4.78672e-04,0.012,0.02
-4.78664e-04,0.012,-0.004
-4.78656e-04,0.004,0.02
-4.78648e-04,-0.004,-0.004
-4.78640e-04,-0.004,0.012
-4.78632e-04,0.004,-0.012
-4.78624e-04,0.012,0.012
-4.78616e-04,0.004,-0.02
-4.78608e-04,-0.004,0.012
-4.78600e-04,0.004,-0.02
-4.78592e-04,0.012,0.02
-4.78584e-04,0.012,-0.012
-4.78576e-04,0.004,0.012
-4.78568e-04,0.004,-0.012
-4.78560e-04,0.004,0.012
-4.78552e-04,0.004,-0.012
-4.78544e-04,0.012,0.02
-4.78536e-04,0.02,-0.012
-4.78528e-04,0.012,0.012
-4.78520e-04,0.004,-0.004
-4.78512e-04,0.012,0.02
-4.78504e-04,0.004,-0.004
-4.78496e-04,0.004,0.02
-4.78488e-04,0.004,-0.004
-4.78480e-04,0.004,0.012
-4.78472e-04,0.004,-0.012
-4.78464e-04,0.004,0.012
-4.78456e-04,0.004,-0.012
-4.78448e-04,0.012,0.004
-4.78440e-04,0.012,-0.012
-4.78432e-04,0.02,0.012
-4.78424e-04,0.012,-0.012
-4.78416e-04,0.02,0.02
-4.78408e-04,0.012,-0.004
-4.78400e-04,-0.004,0.02
-4.78392e-04,0.012,-0.004
-4.78384e-04,0.02,0.028
-4.78376e-04,0.012,-0.02
-4.78368e-04,-0.012,0.02
-4.78360e-04,0.004,-0.02
-4.78352e-04,0.004,0.028
-4.78344e-04,0.012,-0.012
-4.78336e-04,0.004,0.02
-4.78328e-04,0.004,-0.012
-4.78320e-04,0.012,0.012
-4.78312e-04,0.012,-0.012
-4.78304e-04,0.004,0.02
-4.78296e-04,0.012,-0.004
-4.78288e-04,0.012,0.012
-4.78280e-04,0.02,-0.012
-4.78272e-04,0.004,0.012
-4.78264e-04,0.012,-0.004
-4.78256e-04,0.004,0.02
-4.78248e-04,0.012,-0.004
-4.78240e-04,0.012,0.012
-4.78232e-04,0.012,-0.004
-4.78224e-04,0.004,0.02
-4.78216e-04,-0.004,-0.004
-4.78208e-04,0.004,0.012
-4.78200e-04,0.012,-0.012
-4.78192e-04,0.004,0.02
-4.78184e-04,0.004,-0.012
-4.78176e-04,-0.012,0.012
-4.78168e-04,0.004,-0.02
-4.78160e-04,0.004,0.004
-4.78152e-04,0.004,-0.012
-4.78144e-04,0.004,0.012
-4.78136e-04,0.012,-0.012
-4.78128e-04,0.012,0.012
-4.78120e-04,0.012,-0.012
-4.78112e-04,0.004,0.012
-4.78104e-04,0.004,-0.004
-4.78096e-04,0.02,0.02
-4.78088e-04,0.012,-0.012
-4.78080e-04,0.004,0.02
-4.78072e-04,0.004,-0.012
-4.78064e-04,0.004,0.012
-4.78056e-04,0.004,-0.004
-4.78048e-04,0.004,0.012
-4.78040e-04,0.012,-0.02
-4.78032e-04,0.004,0.02
-4.78024e-04,-0.004,-0.02
-4.78016e-04,0.004,0.012
-4.78008e-04,0.012,-0.012
-4.78000e-04,0.02,0.012
-4.77992e-04,0.02,-0.012
-4.77984e-04,0.012,0.02
-4.77976e-04,0.004,-0.004
-4.77968e-04,0.012,0.02
-4.77960e-04,0.012,-0.004
-4.77952e-04,0.02,0.02
-4.77944e-04,0.012,-0.004
-4.77936e-04,0.004,0.02
-4.77928e-04,-0.004,-0.004
-4.77920e-04,-0.004,0.02
-4.77912e-04,0.004,-0.012
-4.77904e-04,0.012,0.012
-4.77896e-04,-0.004,-0.004
-4.77888e-04,0.012,0.012
-4.77880e-04,-0.004,-0.012
-4.77872e-04,-0.004,0.012
-4.77864e-04,0.004,-0.012
-4.77856e-04,0.012,0.02
-4.77848e-04,0.012,-0.012
-4.77840e-04,0.02,0.012
-4.77832e-04,-0.004,-0.004
-4.77824e-04,0.004,0.02
-4.77816e-04,0.012,-0.012
-4.77808e-04,0.012,0.02
-4.77800e-04,0.004,-0.004
-4.77792e-04,0.004,0.012
-4.77784e-04,0.004,-0.012
-4.77776e-04,0.004,0.012
-4.77768e-04,0.004,-0.012
-4.77760e-04,0.004,0.012
