Teste de Desempeño/Dualpex 071 performance test/Dualpex 071 performance test data CSV/T0002.CSV

Model,DPO2012
Firmware Version,1.25

Point Format,Y,
Horizontal Units,S,
Horizontal Scale,0.0001,
Sample Interval,8e-09,
Filter Frequency,1e+08,
Record Length,125000,
Gating,0.0% to 100.0%,
Probe Attenuation,10,
Vertical Units,V,
Vertical Offset,0,
Vertical Scale,0.5,
Label,,
TIME,CH2,CH2 Peak Detect
-4.90000e-04,0.01,0.03
-4.89992e-04,0.01,-0.01
-4.89984e-04,0.03,0.05
-4.89976e-04,0.03,-0.01
-4.89968e-04,0.03,0.03
-4.89960e-04,0.03,-0.01
-4.89952e-04,0.03,0.03
-4.89944e-04,0.03,-0.01
-4.89936e-04,0.01,0.03
-4.89928e-04,0.03,-0.01
-4.89920e-04,0.05,0.03
-4.89912e-04,0.05,-0.01
-4.89904e-04,0.03,0.05
-4.89896e-04,0.03,0.01
-4.89888e-04,0.05,0.05
-4.89880e-04,0.03,-0.01
-4.89872e-04,0.01,0.05
-4.89864e-04,0.03,0.01
-4.89856e-04,0.01,0.03
-4.89848e-04,0.03,-0.01
-4.89840e-04,-0.01,0.03
-4.89832e-04,0.01,-0.01
-4.89824e-04,0.03,0.03
-4.89816e-04,0.03,-0.03
-4.89808e-04,0.01,0.03
-4.89800e-04,0.03,-0.01
-4.89792e-04,0.05,0.05
-4.89784e-04,0.03,-0.01
-4.89776e-04,0.03,0.05
-4.89768e-04,0.05,-0.01
-4.89760e-04,0.03,0.05
-4.89752e-04,0.03,0.01
-4.89744e-04,0.01,0.05
-4.89736e-04,0.03,-0.01
-4.89728e-04,0.03,0.03
-4.89720e-04,0.01,-0.03
-4.89712e-04,0.01,0.03
-4.89704e-04,0.01,-0.01
-4.89696e-04,0.03,0.05
-4.89688e-04,0.01,-0.01
-4.89680e-04,0.01,0.03
-4.89672e-04,0.03,-0.01
-4.89664e-04,0.05,0.03
-4.89656e-04,0.03,-0.01
-4.89648e-04,0.03,0.05
-4.89640e-04,0.03,-0.01
-4.89632e-04,0.05,0.03
-4.89624e-04,0.05,0.01
-4.89616e-04,0.03,0.05
-4.89608e-04,0.03,0.01
-4.89600e-04,0.03,0.05
-4.89592e-04,0.01,0.01
-4.89584e-04,0.03,0.05
-4.89576e-04,0.03,-0.01
-4.89568e-04,0.01,0.03
-4.89560e-04,0.01,-0.01
-4.89552e-04,0.01,0.03
-4.89544e-04,0.03,-0.01
-4.89536e-04,0.03,0.01
-4.89528e-04,0.01,-0.01
-4.89520e-04,0.03,0.03
-4.89512e-04,0.03,-0.01
-4.89504e-04,0.03,0.03
-4.89496e-04,0.01,0.01
-4.89488e-04,0.03,0.05
-4.89480e-04,0.05,-0.01
-4.89472e-04,0.05,0.03
-4.89464e-04,0.03,0.01
-4.89456e-04,0.03,0.07
-4.89448e-04,0.05,-0.01
-4.89440e-04,0.03,0.05
-4.89432e-04,0.01,0.01
-4.89424e-04,0.03,0.05
-4.89416e-04,0.03,-0.01
-4.89408e-04,0.01,0.03
-4.89400e-04,0.01,-0.01
-4.89392e-04,0.03,0.03
-4.89384e-04,0.05,-0.03
-4.89376e-04,0.01,0.03
-4.89368e-04,0.03,-0.01
-4.89360e-04,0.05,0.05
-4.89352e-04,0.05,0.01
-4.89344e-04,0.03,0.05
-4.89336e-04,0.03,0.01
-4.89328e-04,0.05,0.07
-4.89320e-04,0.03,0.01
-4.89312e-04,0.01,0.05
-4.89304e-04,0.03,-0.01
-4.89296e-04,0.05,0.05
-4.89288e-04,0.03,-0.01
-4.89280e-04,-0.01,0.05
-4.89272e-04,0.01,-0.03
-4.89264e-04,0.01,0.03
-4.89256e-04,0.03,-0.01
-4.89248e-04,0.01,0.03
-4.89240e-04,0.01,-0.01
-4.89232e-04,0.03,0.03
-4.89224e-04,0.01,-0.01
-4.89216e-04,0.03,0.03
-4.89208e-04,0.03,-0.03
-4.89200e-04,0.05,0.03
-4.89192e-04,0.03,0.01
-4.89184e-04,0.03,0.05
-4.89176e-04,0.03,-0.01
-4.89168e-04,0.03,0.05
-4.89160e-04,0.03,0.01
-4.89152e-04,0.01,0.05
-4.89144e-04,0.01,-0.01
-4.89136e-04,0.03,0.03
-4.89128e-04,-0.01,-0.01
-4.89120e-04,-0.01,0.03
-4.89112e-04,0.03,-0.03
-4.89104e-04,0.03,0.03
-4.89096e-04,0.03,-0.01
-4.89088e-04,0.03,0.03
-4.89080e-04,0.05,-0.01
-4.89072e-04,0.03,0.03
-4.89064e-04,0.03,-0.01
-4.89056e-04,0.03,0.05
-4.89048e-04,0.05,0.01
-4.89040e-04,0.03,0.03
-4.89032e-04,0.01,0.01
-4.89024e-04,0.01,0.05
-4.89016e-04,0.03,-0.01
-4.89008e-04,0.03,0.03
-4.89000e-04,0.03,-0.01
-4.88992e-04,0.03,0.03
-4.88984e-04,0.03,-0.01
-4.88976e-04,0.03,0.03
-4.88968e-04,0.03,-0.01
-4.88960e-04,0.03,0.03
-4.88952e-04,0.03,-0.01
-4.88944e-04,0.01,0.03
-4.88936e-04,0.03,-0.01
-4.88928e-04,0.03,0.03
-4.88920e-04,0.03,-0.01
-4.88912e-04,0.03,0.03
-4.88904e-04,0.05,0.01
-4.88896e-04,0.03,0.05
-4.88888e-04,0.03,-0.01
-4.88880e-04,0.05,0.05
-4.88872e-04,0.01,-0.01
-4.88864e-04,0.03,0.05
-4.88856e-04,0.03,-0.01
-4.88848e-04,0.03,0.05
-4.88840e-04,0.01,-0.01
-4.88832e-04,0.01,0.03
-4.88824e-04,0.03,-0.01
-4.88816e-04,0.03,0.03
-4.88808e-04,0.03,0.01
-4.88800e-04,0.03,0.05
-4.88792e-04,0.03,-0.01
-4.88784e-04,0.03,0.03
-4.88776e-04,0.03,-0.01
-4.88768e-04,0.03,0.03
-4.88760e-04,0.03,-0.01
-4.88752e-04,0.03,0.03
-4.88744e-04,0.03,-0.01
-4.88736e-04,0.03,0.05
-4.88728e-04,0.03,-0.01
-4.88720e-04,0.03,0.03
-4.88712e-04,0.03,0.01
-4.88704e-04,0.03,0.07
-4.88696e-04,0.03,-0.01
-4.88688e-04,0.03,0.03
-4.88680e-04,0.03,0.01
-4.88672e-04,0.01,0.03
-4.88664e-04,0.03,-0.01
-4.88656e-04,0.03,0.03
-4.88648e-04,0.05,-0.01
-4.88640e-04,0.05,0.03
-4.88632e-04,0.03,-0.01
-4.88624e-04,0.01,0.05
-4.88616e-04,0.03,-0.01
-4.88608e-04,0.03,0.03
-4.88600e-04,0.03,-0.01
-4.88592e-04,0.03,0.03
-4.88584e-04,0.03,0.01
-4.88576e-04,0.03,0.05
-4.88568e-04,0.03,0.01
-4.88560e-04,0.03,0.05
-4.88552e-04,0.03,-0.01
-4.88544e-04,0.05,0.03
-4.88536e-04,0.03,-0.01
-4.88528e-04,-0.01,0.05
-4.88520e-04,0.01,-0.03
-4.88512e-04,0.03,0.05
-4.88504e-04,0.03,-0.01
-4.88496e-04,-0.01,0.03
-4.88488e-04,0.03,-0.03
-4.88480e-04,0.05,0.03
-4.88472e-04,0.03,-0.03
-4.88464e-04,-0.01,0.05
-4.88456e-04,-0.01,-0.03
-4.88448e-04,0.09,0.05
-4.88440e-04,0.07,-0.05
-4.88432e-04,0.01,0.09
-4.88424e-04,0.01,-0.01
-4.88416e-04,0.03,0.09
-4.88408e-04,0.05,-0.03
-4.88400e-04,0.03,0.03
-4.88392e-04,0.01,-0.01
-4.88384e-04,0.05,0.07
-4.88376e-04,0.03,-0.01
-4.88368e-04,0.01,0.05
-4.88360e-04,-0.01,-0.01
-4.88352e-04,0.05,0.07
-4.88344e-04,0.03,-0.01
-4.88336e-04,0.03,0.05
-4.88328e-04,0.01,-0.01
-4.88320e-04,0.03,0.05
-4.88312e-04,0.01,-0.01
-4.88304e-04,0.03,0.05
-4.88296e-04,0.05,-0.01
-4.88288e-04,0.03,0.03
-4.88280e-04,0.01,0.01
-4.88272e-04,0.03,0.05
-4.88264e-04,0.05,-0.01
-4.88256e-04,0.03,0.03
-4.88248e-04,0.01,0.01
-4.88240e-04,0.01,0.05
-4.88232e-04,0.05,-0.03
-4.88224e-04,0.03,0.01
-4.88216e-04,0.01,-0.01
-4.88208e-04,0.01,0.05
-4.88200e-04,0.05,-0.03
-4.88192e-04,0.05,0.03
-4.88184e-04,0.01,-0.01
-4.88176e-04,0.01,0.05
-4.88168e-04,0.03,-0.01
-4.88160e-04,0.03,0.03
-4.88152e-04,0.01,-0.01
-4.88144e-04,0.03,0.03
-4.88136e-04,0.03,-0.01
-4.88128e-04,0.03,0.03
-4.88120e-04,0.01,-0.01
-4.88112e-04,0.05,0.05
-4.88104e-04,0.05,-0.01
-4.88096e-04,0.03,0.05
-4.88088e-04,0.01,-0.01
-4.88080e-04,0.03,0.05
-4.88072e-04,0.03,-0.01
-4.88064e-04,0.03,0.05
-4.88056e-04,0.03,-0.01
-4.88048e-04,0.03,0.05
-4.88040e-04,0.03,-0.01
-4.88032e-04,0.01,0.05
-4.88024e-04,0.01,-0.01
-4.88016e-04,0.05,0.05
-4.88008e-04,0.05,-0.01
-4.88000e-04,0.01,0.05
-4.87992e-04,0.01,-0.01
-4.87984e-04,0.01,0.05
-4.87976e-04,0.05,-0.01
-4.87968e-04,0.03,0.03
-4.87960e-04,0.01,-0.01
-4.87952e-04,0.03,0.05
-4.87944e-04,0.03,-0.01
-4.87936e-04,0.01,0.03
-4.87928e-04,0.03,-0.01
-4.87920e-04,0.05,0.05
-4.87912e-04,0.03,-0.01
-4.87904e-04,0.03,0.05
-4.87896e-04,0.01,0.01
-4.87888e-04,0.03,0.05
-4.87880e-04,0.03,-0.01
-4.87872e-04,0.03,0.03
-4.87864e-04,0.03,-0.01
-4.87856e-04,0.03,0.03
-4.87848e-04,0.03,-0.01
-4.87840e-04,0.03,0.03
-4.87832e-04,0.03,-0.01
-4.87824e-04,0.05,0.03
-4.87816e-04,0.03,0.01
-4.87808e-04,0.01,0.05
-4.87800e-04,0.03,-0.01
-4.87792e-04,0.03,0.05
-4.87784e-04,0.01,-0.01
-4.87776e-04,0.01,0.03
-4.87768e-04,0.03,-0.01
-4.87760e-04,0.03,0.03
-4.87752e-04,0.03,-0.01
-4.87744e-04,0.01,0.03
-4.87736e-04,0.03,-0.01
-4.87728e-04,0.03,0.03
-4.87720e-04,0.03,-0.01
-4.87712e-04,0.01,0.03
-4.87704e-04,0.03,-0.01
-4.87696e-04,0.03,0.03
-4.87688e-04,0.03,-0.01
-4.87680e-04,0.03,0.05
-4.87672e-04,0.03,-0.01
-4.87664e-04,0.03,0.03
-4.87656e-04,0.03,0.01
-4.87648e-04,0.03,0.03
-4.87640e-04,0.05,0.01
-4.87632e-04,0.05,0.05
-4.87624e-04,0.03,0.01
-4.87616e-04,0.03,0.05
-4.87608e-04,0.03,-0.01
-4.87600e-04,0.03,0.05
-4.87592e-04,0.03,0.01
-4.87584e-04,0.01,0.05
-4.87576e-04,0.03,-0.01
-4.87568e-04,0.03,0.03
-4.87560e-04,0.01,-0.01
-4.87552e-04,0.03,0.05
-4.87544e-04,0.03,-0.01
-4.87536e-04,0.05,0.03
-4.87528e-04,0.03,-0.01
-4.87520e-04,0.03,0.05
-4.87512e-04,0.03,-0.01
-4.87504e-04,0.03,0.03
-4.87496e-04,0.03,-0.01
-4.87488e-04,0.03,0.03
-4.87480e-04,0.03,-0.01
-4.87472e-04,0.01,0.03
-4.87464e-04,0.03,-0.01
-4.87456e-04,0.01,0.05
-4.87448e-04,0.03,-0.01
-4.87440e-04,0.03,0.03
-4.87432e-04,0.03,-0.01
-4.87424e-04,0.03,0.03
-4.87416e-04,0.03,-0.01
-4.87408e-04,0.01,0.03
-4.87400e-04,0.03,-0.01
-4.87392e-04,0.05,0.03
-4.87384e-04,0.03,-0.01
-4.87376e-04,0.01,0.05
-4.87368e-04,0.01,-0.01
-4.87360e-04,0.05,0.03
-4.87352e-04,0.05,-0.01
-4.87344e-04,0.01,0.05
-4.87336e-04,0.01,-0.01
-4.87328e-04,0.03,0.05
-4.87320e-04,0.05,-0.01
-4.87312e-04,0.03,0.03
-4.87304e-04,0.01,-0.01
-4.87296e-04,0.05,0.05
-4.87288e-04,0.03,-0.01
-4.87280e-04,0.01,0.05
-4.87272e-04,0.01,-0.01
-4.87264e-04,0.03,0.03
-4.87256e-04,0.05,-0.01
-4.87248e-04,0.01,0.03
-4.87240e-04,0.01,0.01
-4.87232e-04,0.03,0.05
-4.87224e-04,0.03,-0.01
-4.87216e-04,0.01,0.03
-4.87208e-04,0.03,-0.01
-4.87200e-04,0.03,0.03
-4.87192e-04,0.03,-0.01
-4.87184e-04,0.01,0.03
-4.87176e-04,0.03,0.01
-4.87168e-04,0.05,0.05
-4.87160e-04,0.01,-0.01
-4.87152e-04,0.01,0.05
-4.87144e-04,0.03,-0.01
-4.87136e-04,0.03,0.05
-4.87128e-04,0.03,-0.01
-4.87120e-04,0.01,0.03
-4.87112e-04,0.03,-0.01
-4.87104e-04,0.03,0.03
-4.87096e-04,0.03,-0.01
-4.87088e-04,0.01,0.05
-4.87080e-04,0.03,-0.01
-4.87072e-04,0.03,0.03
-4.87064e-04,0.03,-0.01
-4.87056e-04,0.03,0.03
-4.87048e-04,0.03,-0.01
-4.87040e-04,0.03,0.03
-4.87032e-04,0.03,0.01
-4.87024e-04,0.01,0.03
-4.87016e-04,0.03,-0.01
-4.87008e-04,0.03,0.03
-4.87000e-04,0.01,-0.01
-4.86992e-04,0.03,0.03
-4.86984e-04,0.05,-0.01
-4.86976e-04,0.03,0.03
-4.86968e-04,0.03,0.01
-4.86960e-04,0.03,0.05
-4.86952e-04,0.03,-0.01
-4.86944e-04,0.03,0.03
-4.86936e-04,0.03,-0.01
-4.86928e-04,0.03,0.05
-4.86920e-04,0.03,-0.01
-4.86912e-04,0.03,0.03
-4.86904e-04,0.01,0.01
-4.86896e-04,0.01,0.03
-4.86888e-04,0.03,-0.01
-4.86880e-04,0.03,0.03
-4.86872e-04,0.03,0.01
-4.86864e-04,0.03,0.05
-4.86856e-04,0.03,-0.01
-4.86848e-04,0.03,0.03
-4.86840e-04,-0.01,0.01
-4.86832e-04,0.03,0.05
-4.86824e-04,0.03,-0.01
-4.86816e-04,0.05,0.03
-4.86808e-04,0.01,-0.01
-4.86800e-04,0.03,0.05
-4.86792e-04,0.05,-0.01
-4.86784e-04,0.03,0.03
-4.86776e-04,0.01,-0.01
-4.86768e-04,0.03,0.05
-4.86760e-04,0.03,-0.03
-4.86752e-04,0.03,0.05
-4.86744e-04,0.01,0.01
-4.86736e-04,0.05,0.03
-4.86728e-04,0.03,-0.01
-4.86720e-04,0.03,0.05
-4.86712e-04,0.01,0.01
-4.86704e-04,0.03,0.05
-4.86696e-04,0.05,-0.01
-4.86688e-04,0.01,0.03
-4.86680e-04,0.01,-0.01
-4.86672e-04,0.03,0.05
-4.86664e-04,0.03,-0.01
-4.86656e-04,0.01,0.03
-4.86648e-04,0.03,0.01
-4.86640e-04,0.03,0.05
-4.86632e-04,0.03,-0.01
-4.86624e-04,0.03,0.03
-4.86616e-04,0.03,-0.01
-4.86608e-04,0.03,0.05
-4.86600e-04,0.03,-0.01
-4.86592e-04,0.03,0.03
-4.86584e-04,0.01,-0.01
-4.86576e-04,0.03,0.03
-4.86568e-04,0.03,-0.01
-4.86560e-04,0.01,0.03
-4.86552e-04,0.03,-0.01
-4.86544e-04,0.03,0.03
-4.86536e-04,0.03,-0.01
-4.86528e-04,0.03,0.03
-4.86520e-04,0.03,-0.01
-4.86512e-04,0.03,0.03
-4.86504e-04,0.03,0.01
-4.86496e-04,0.01,0.05
-4.86488e-04,0.03,-0.01
-4.86480e-04,0.03,0.05
-4.86472e-04,0.01,-0.01
-4.86464e-04,-0.01,0.03
-4.86456e-04,0.01,-0.03
-4.86448e-04,0.03,0.01
-4.86440e-04,0.01,-0.01
-4.86432e-04,0.01,0.03
-4.86424e-04,0.05,-0.01
-4.86416e-04,0.05,0.03
-4.86408e-04,0.03,0.01
-4.86400e-04,0.01,0.05
-4.86392e-04,0.03,-0.01
-4.86384e-04,0.03,0.05
-4.86376e-04,0.01,-0.01
-4.86368e-04,-0.01,0.03
-4.86360e-04,0.01,-0.05
-4.86352e-04,0.03,0.01
-4.86344e-04,0.03,-0.03
-4.86336e-04,0.03,0.03
-4.86328e-04,0.03,-0.01
-4.86320e-04,0.05,0.03
-4.86312e-04,0.03,0.01
-4.86304e-04,0.01,0.05
-4.86296e-04,0.03,-0.01
-4.86288e-04,0.03,0.05
-4.86280e-04,0.01,-0.01
-4.86272e-04,-0.01,0.03
-4.86264e-04,0.01,-0.03
-4.86256e-04,0.03,0.01
-4.86248e-04,0.03,-0.01
-4.86240e-04,0.03,0.05
-4.86232e-04,0.03,-0.01
-4.86224e-04,0.03,0.03
-4.86216e-04,0.01,0.01
-4.86208e-04,0.03,0.03
-4.86200e-04,0.01,-0.01
-4.86192e-04,0.01,0.03
-4.86184e-04,0.01,-0.01
-4.86176e-04,0.03,0.03
-4.86168e-04,0.03,-0.01
-4.86160e-04,0.05,0.03
-4.86152e-04,0.03,0.01
-4.86144e-04,0.03,0.05
-4.86136e-04,0.03,0.01
-4.86128e-04,0.03,0.03
-4.86120e-04,0.01,0.01
-4.86112e-04,0.01,0.05
-4.86104e-04,0.01,-0.03
-4.86096e-04,0.01,0.01
-4.86088e-04,0.01,-0.01
-4.86080e-04,0.01,0.03
-4.86072e-04,0.05,-0.03
-4.86064e-04,0.05,0.01
-4.86056e-04,0.05,-0.01
-4.86048e-04,0.05,0.05
-4.86040e-04,0.03,0.01
-4.86032e-04,0.03,0.05
-4.86024e-04,0.01,0.01
-4.86016e-04,0.03,0.05
-4.86008e-04,0.01,-0.01
-4.86000e-04,0.03,0.03
-4.85992e-04,0.01,-0.01
-4.85984e-04,0.01,0.03
-4.85976e-04,0.03,-0.03
-4.85968e-04,0.01,0.03
-4.85960e-04,0.03,-0.01
-4.85952e-04,0.03,0.03
-4.85944e-04,0.03,-0.01
-4.85936e-04,0.01,0.03
-4.85928e-04,0.03,-0.01
-4.85920e-04,0.03,0.05
-4.85912e-04,0.03,0.01
-4.85904e-04,0.03,0.05
-4.85896e-04,0.03,0.01
-4.85888e-04,0.03,0.05
-4.85880e-04,0.03,-0.01
-4.85872e-04,0.03,0.03
-4.85864e-04,0.01,-0.01
-4.85856e-04,0.03,0.03
-4.85848e-04,0.03,-0.01
-4.85840e-04,-0.01,0.03
-4.85832e-04,0.01,-0.03
-4.85824e-04,0.03,0.03
-4.85816e-04,0.03,-0.01
-4.85808e-04,0.01,0.03
-4.85800e-04,0.01,-0.03
-4.85792e-04,0.03,0.03
-4.85784e-04,0.01,-0.01
-4.85776e-04,0.03,0.05
-4.85768e-04,0.05,-0.01
-4.85760e-04,0.03,0.03
-4.85752e-04,0.03,0.01
-4.85744e-04,0.03,0.05
-4.85736e-04,0.01,-0.01
-4.85728e-04,0.03,0.03
-4.85720e-04,0.03,-0.01
-4.85712e-04,0.01,0.03
-4.85704e-04,0.01,-0.01
-4.85696e-04,0.03,0.03
-4.85688e-04,0.01,-0.01
-4.85680e-04,0.01,0.03
-4.85672e-04,0.01,-0.03
-4.85664e-04,0.03,0.03
-4.85656e-04,0.03,-0.01
-4.85648e-04,0.01,0.03
-4.85640e-04,0.03,-0.01
-4.85632e-04,0.01,0.03
-4.85624e-04,0.01,-0.01
-4.85616e-04,0.03,0.03
-4.85608e-04,0.07,-0.03
-4.85600e-04,0.07,0.03
-4.85592e-04,0.05,-0.01
-4.85584e-04,0.03,0.09
-4.85576e-04,0.05,-0.01
-4.85568e-04,0.05,0.07
-4.85560e-04,0.03,0.01
-4.85552e-04,-0.01,0.07
-4.85544e-04,-0.03,-0.03
-4.85536e-04,-0.03,0.05
-4.85528e-04,-0.03,-0.05
-4.85520e-04,-0.03,-0.01
-4.85512e-04,0.01,-0.05
-4.85504e-04,0.03,-0.01
-4.85496e-04,0.03,-0.03
-4.85488e-04,0.05,0.03
-4.85480e-04,0.07,0.01
-4.85472e-04,0.05,0.05
-4.85464e-04,0.05,0.03
-4.85456e-04,0.05,0.07
-4.85448e-04,0.05,0.03
-4.85440e-04,0.03,0.05
-4.85432e-04,0.03,0.01
-4.85424e-04,0.05,0.05
-4.85416e-04,0.03,0.01
-4.85408e-04,0.01,0.05
-4.85400e-04,-0.01,-0.01
-4.85392e-04,0.01,0.05
-4.85384e-04,0.01,-0.03
-4.85376e-04,0.01,0.01
-4.85368e-04,-0.01,-0.01
-4.85360e-04,-0.01,0.03
-4.85352e-04,0.03,-0.03
-4.85344e-04,0.03,-0.01
-4.85336e-04,0.05,-0.03
-4.85328e-04,0.07,0.05
-4.85320e-04,0.07,0.01
-4.85312e-04,0.05,0.07
-4.85304e-04,0.05,0.03
-4.85296e-04,0.01,0.07
-4.85288e-04,0.01,-0.01
-4.85280e-04,-0.01,0.05
-4.85272e-04,-0.01,-0.01
-4.85264e-04,0.01,0.03
-4.85256e-04,-0.01,-0.03
-4.85248e-04,0.01,0.01
-4.85240e-04,0.03,-0.01
-4.85232e-04,0.03,0.01
-4.85224e-04,0.03,-0.01
-4.85216e-04,0.01,0.05
-4.85208e-04,0.03,0.01
-4.85200e-04,0.01,0.05
-4.85192e-04,0.03,-0.01
-4.85184e-04,0.01,0.03
-4.85176e-04,0.03,-0.01
-4.85168e-04,0.03,0.03
-4.85160e-04,0.05,-0.01
-4.85152e-04,0.03,0.03
-4.85144e-04,0.05,-0.01
-4.85136e-04,0.03,0.05
-4.85128e-04,0.01,-0.01
-4.85120e-04,0.01,0.05
-4.85112e-04,0.01,-0.01
-4.85104e-04,0.01,0.03
-4.85096e-04,0.01,-0.03
-4.85088e-04,-0.01,0.01
-4.85080e-04,0.03,-0.01
-4.85072e-04,0.03,0.03
-4.85064e-04,0.03,-0.03
-4.85056e-04,0.03,0.03
-4.85048e-04,0.05,0.01
-4.85040e-04,0.03,0.03
-4.85032e-04,0.01,0.01
-4.85024e-04,0.01,0.05
-4.85016e-04,0.01,-0.03
-4.85008e-04,0.03,0.01
-4.85000e-04,0.01,-0.01
-4.84992e-04,0.01,0.03
-4.84984e-04,0.03,-0.03
-4.84976e-04,0.03,0.03
-4.84968e-04,0.03,-0.01
-4.84960e-04,0.03,0.05
-4.84952e-04,0.03,-0.01
-4.84944e-04,0.03,0.03
-4.84936e-04,0.03,-0.01
-4.84928e-04,-0.01,0.03
-4.84920e-04,0.03,-0.03
-4.84912e-04,0.03,0.03
-4.84904e-04,0.01,-0.03
-4.84896e-04,0.03,0.03
-4.84888e-04,0.03,-0.01
-4.84880e-04,0.03,0.03
-4.84872e-04,0.03,0.01
-4.84864e-04,0.05,0.05
-4.84856e-04,0.03,-0.01
-4.84848e-04,0.01,0.05
-4.84840e-04,0.01,-0.01
-4.84832e-04,0.03,0.03
-4.84824e-04,0.05,-0.01
-4.84816e-04,0.05,0.03
-4.84808e-04,0.03,0.01
-4.84800e-04,0.03,0.05
-4.84792e-04,0.05,-0.01
-4.84784e-04,0.05,0.03
-4.84776e-04,0.03,0.01
-4.84768e-04,0.03,0.05
-4.84760e-04,0.03,-0.01
-4.84752e-04,0.01,0.03
-4.84744e-04,0.01,-0.01
-4.84736e-04,0.01,0.03
-4.84728e-04,0.03,-0.03
-4.84720e-04,0.03,0.03
-4.84712e-04,0.03,-0.01
-4.84704e-04,0.01,0.03
-4.84696e-04,0.03,-0.01
-4.84688e-04,0.03,0.03
-4.84680e-04,0.03,-0.01
-4.84672e-04,0.03,0.05
-4.84664e-04,0.03,-0.01
-4.84656e-04,0.03,0.05
-4.84648e-04,0.03,0.01
-4.84640e-04,0.03,0.05
-4.84632e-04,0.03,-0.01
-4.84624e-04,0.01,0.03
-4.84616e-04,0.01,-0.01
-4.84608e-04,0.03,0.05
-4.84600e-04,0.01,-0.01
-4.84592e-04,0.01,0.03
-4.84584e-04,0.01,-0.01
-4.84576e-04,0.03,0.05
-4.84568e-04,0.03,-0.01
-4.84560e-04,0.01,0.03
-4.84552e-04,0.03,-0.01
-4.84544e-04,0.05,0.03
-4.84536e-04,0.05,-0.01
-4.84528e-04,0.03,0.05
-4.84520e-04,0.03,0.01
-4.84512e-04,0.05,0.05
-4.84504e-04,0.05,0.01
-4.84496e-04,0.03,0.05
-4.84488e-04,0.03,-0.01
-4.84480e-04,0.01,0.05
-4.84472e-04,0.01,-0.01
-4.84464e-04,0.01,0.03
-4.84456e-04,0.01,-0.01
-4.84448e-04,0.03,0.03
-4.84440e-04,0.01,-0.01
-4.84432e-04,0.03,0.03
-4.84424e-04,0.03,-0.01
-4.84416e-04,0.05,0.03
-4.84408e-04,0.03,-0.01
-4.84400e-04,0.03,0.05
-4.84392e-04,0.03,-0.01
-4.84384e-04,0.03,0.03
-4.84376e-04,0.03,-0.01
-4.84368e-04,0.01,0.03
-4.84360e-04,0.05,-0.01
-4.84352e-04,0.05,0.03
-4.84344e-04,0.03,-0.01
-4.84336e-04,0.03,0.05
-4.84328e-04,0.03,-0.01
-4.84320e-04,0.01,0.05
-4.84312e-04,0.01,-0.01
-4.84304e-04,0.03,0.03
-4.84296e-04,0.01,-0.01
-4.84288e-04,0.03,0.03
-4.84280e-04,0.01,-0.01
-4.84272e-04,0.01,0.03
-4.84264e-04,0.03,-0.01
-4.84256e-04,0.03,0.03
-4.84248e-04,0.01,-0.01
-4.84240e-04,0.01,0.03
-4.84232e-04,0.05,-0.01
-4.84224e-04,0.03,0.03
-4.84216e-04,0.01,0.01
-4.84208e-04,0.01,0.05
-4.84200e-04,0.03,-0.01
-4.84192e-04,0.03,0.03
-4.84184e-04,0.01,0.01
-4.84176e-04,0.03,0.05
-4.84168e-04,0.01,-0.01
-4.84160e-04,0.01,0.03
-4.84152e-04,0.03,-0.01
-4.84144e-04,0.03,0.03
-4.84136e-04,0.03,-0.01
-4.84128e-04,0.03,0.03
-4.84120e-04,0.01,-0.01
-4.84112e-04,0.03,0.05
-4.84104e-04,0.05,-0.01
-4.84096e-04,0.01,0.03
-4.84088e-04,-0.01,-0.01
-4.84080e-04,0.01,0.05
-4.84072e-04,0.03,-0.01
-4.84064e-04,0.03,0.03
-4.84056e-04,0.03,-0.03
-4.84048e-04,0.03,0.03
-4.84040e-04,0.03,-0.01
-4.84032e-04,0.01,0.03
-4.84024e-04,0.01,-0.01
-4.84016e-04,0.03,0.05
-4.84008e-04,0.03,-0.01
-4.84000e-04,0.01,0.03
-4.83992e-04,0.03,-0.01
-4.83984e-04,0.03,0.03
-4.83976e-04,0.03,-0.01
-4.83968e-04,0.03,0.03
-4.83960e-04,0.01,0.01
-4.83952e-04,0.03,0.05
-4.83944e-04,0.05,-0.01
-4.83936e-04,0.03,0.03
-4.83928e-04,0.01,0.01
-4.83920e-04,0.03,0.05
-4.83912e-04,0.03,-0.01
-4.83904e-04,0.01,0.03
-4.83896e-04,0.03,-0.01
-4.83888e-04,0.03,0.03
-4.83880e-04,0.03,-0.01
-4.83872e-04,0.03,0.05
-4.83864e-04,0.05,0.01
-4.83856e-04,0.05,0.03
-4.83848e-04,0.01,-0.01
-4.83840e-04,0.01,0.05
-4.83832e-04,0.01,-0.01
-4.83824e-04,0.03,0.05
-4.83816e-04,0.03,-0.01
-4.83808e-04,0.01,0.03
-4.83800e-04,0.03,-0.01
-4.83792e-04,0.03,0.03
-4.83784e-04,0.03,-0.01
-4.83776e-04,0.01,0.03
-4.83768e-04,0.01,-0.01
-4.83760e-04,0.03,0.03
-4.83752e-04,0.03,-0.01
-4.83744e-04,0.01,0.03
-4.83736e-04,0.03,-0.01
-4.83728e-04,0.03,0.03
-4.83720e-04,0.03,-0.01
-4.83712e-04,0.01,0.03
-4.83704e-04,0.03,-0.01
-4.83696e-04,0.03,0.03
-4.83688e-04,0.03,0.01
-4.83680e-04,0.03,0.03
-4.83672e-04,0.03,-0.01
-4.83664e-04,0.03,0.05
-4.83656e-04,0.03,0.01
-4.83648e-04,0.03,0.03
-4.83640e-04,0.03,-0.01
-4.83632e-04,0.03,0.05
-4.83624e-04,0.03,-0.01
-4.83616e-04,0.01,0.05
-4.83608e-04,0.03,-0.01
-4.83600e-04,0.03,0.03
-4.83592e-04,0.03,0.01
-4.83584e-04,0.03,0.05
-4.83576e-04,0.05,-0.01
-4.83568e-04,0.01,0.03
-4.83560e-04,0.01,-0.01
-4.83552e-04,0.03,0.05
-4.83544e-04,0.01,-0.01
-4.83536e-04,0.01,0.03
-4.83528e-04,0.01,-0.01
-4.83520e-04,0.03,0.05
-4.83512e-04,0.03,-0.01
-4.83504e-04,0.03,0.03
-4.83496e-04,0.03,0.01
-4.83488e-04,0.03,0.03
-4.83480e-04,0.03,-0.01
-4.83472e-04,0.03,0.05
-4.83464e-04,0.01,-0.01
-4.83456e-04,0.01,0.03
-4.83448e-04,0.03,-0.01
-4.83440e-04,0.03,0.03
-4.83432e-04,0.03,-0.01
-4.83424e-04,0.01,0.05
-4.83416e-04,0.03,-0.01
-4.83408e-04,0.01,0.03
-4.83400e-04,0.01,0.01
-4.83392e-04,0.03,0.03
-4.83384e-04,0.03,-0.03
-4.83376e-04,0.01,0.03
-4.83368e-04,0.01,0.01
-4.83360e-04,0.03,0.03
-4.83352e-04,0.03,-0.01
-4.83344e-04,0.03,0.03
-4.83336e-04,0.01,-0.01
-4.83328e-04,0.05,0.03
-4.83320e-04,0.01,-0.01
-4.83312e-04,0.01,0.05
-4.83304e-04,0.03,-0.01
-4.83296e-04,0.03,0.05
-4.83288e-04,0.03,-0.01
