Teste de Desempeño/Dualpex 071 performance test/Dualpex 071 performance test data CSV/T0019.CSV

Model,DPO2012
Firmware Version,1.25

Point Format,Y,
Horizontal Units,S,
Horizontal Scale,0.0004,
Sample Interval,3.2e-08,
Filter Frequency,1e+08,
Record Length,125000,
Gating,0.0% to 100.0%,
Probe Attenuation,10,
Vertical Units,V,
Vertical Offset,0,
Vertical Scale,0.1,
Label,,
TIME,CH2,CH2 Peak Detect
-2.00000e-03,0.006,0.03
-1.99997e-03,-0.002,-0.018
-1.99994e-03,-0.018,0.01
-1.99990e-03,0.002,-0.022
-1.99987e-03,0.01,0.026
-1.99984e-03,-0.006,-0.022
-1.99981e-03,0.002,0.022
-1.99978e-03,-0.002,-0.018
-1.99974e-03,-0.01,0.014
-1.99971e-03,0.002,-0.018
-1.99968e-03,0.002,0.03
-1.99965e-03,0.002,-0.014
-1.99962e-03,0.002,0.026
-1.99958e-03,-0.002,-0.014
-1.99955e-03,0.006,0.022
-1.99952e-03,0.01,-0.018
-1.99949e-03,0.014,0.018
-1.99946e-03,0.01,-0.018
-1.99942e-03,0.002,0.018
-1.99939e-03,0.002,-0.01
-1.99936e-03,0.006,0.026
-1.99933e-03,0.006,-0.014
-1.99930e-03,0.002,0.022
-1.99926e-03,0.01,-0.018
-1.99923e-03,0.014,0.014
-1.99920e-03,0.006,-0.014
-1.99917e-03,0.006,0.018
-1.99914e-03,0.014,-0.01
-1.99910e-03,0.018,0.014
-1.99907e-03,0.014,-0.01
-1.99904e-03,0.014,0.018
-1.99901e-03,0.01,-0.018
-1.99898e-03,0.006,0.018
-1.99894e-03,0.006,-0.01
-1.99891e-03,0.014,0.014
-1.99888e-03,-0.006,-0.018
-1.99885e-03,-0.002,0.014
-1.99882e-03,0.006,-0.022
-1.99878e-03,0.006,0.018
-1.99875e-03,0.01,-0.01
-1.99872e-03,0.002,0.018
-1.99869e-03,-0.01,-0.018
-1.99866e-03,-0.002,0.014
-1.99862e-03,0.01,-0.014
-1.99859e-03,0.006,0.022
-1.99856e-03,0.002,-0.014
-1.99853e-03,-0.002,0.022
-1.99850e-03,-0.018,-0.01
-1.99846e-03,-0.01,0.018
-1.99843e-03,0.006,-0.022
-1.99840e-03,-0.002,0.022
-1.99837e-03,0.002,-0.018
-1.99834e-03,-0.006,0.022
-1.99830e-03,-0.006,-0.01
-1.99827e-03,0.006,0.022
-1.99824e-03,0.006,-0.022
-1.99821e-03,0.006,0.018
-1.99818e-03,0.006,-0.018
-1.99814e-03,0.002,0.022
-1.99811e-03,0.006,-0.014
-1.99808e-03,0.01,0.014
-1.99805e-03,0.01,-0.018
-1.99802e-03,0.006,0.022
-1.99798e-03,0.01,-0.01
-1.99795e-03,0.014,0.018
-1.99792e-03,0.014,-0.01
-1.99789e-03,0.018,0.014
-1.99786e-03,0.022,-0.022
-1.99782e-03,0.018,0.022
-1.99779e-03,0.018,-0.01
-1.99776e-03,0.006,0.026
-1.99773e-03,0.006,-0.014
-1.99770e-03,0.014,0.018
-1.99766e-03,0.014,-0.018
-1.99763e-03,0.018,0.022
-1.99760e-03,0.006,-0.014
-1.99757e-03,0.002,0.018
-1.99754e-03,0.01,-0.018
-1.99750e-03,-0.002,0.018
-1.99747e-03,0.002,-0.01
-1.99744e-03,0.002,0.018
-1.99741e-03,-0.002,-0.014
-1.99738e-03,0.006,0.018
-1.99734e-03,0.01,-0.014
-1.99731e-03,0.006,0.014
-1.99728e-03,-0.006,-0.01
-1.99725e-03,-0.006,0.018
-1.99722e-03,-0.01,-0.014
-1.99718e-03,0.006,0.018
-1.99715e-03,-0.002,-0.014
-1.99712e-03,-0.014,0.022
-1.99709e-03,-0.01,-0.018
-1.99706e-03,-0.002,0.022
-1.99702e-03,0.002,-0.018
-1.99699e-03,0.006,0.014
-1.99696e-03,-0.002,-0.01
-1.99693e-03,0.002,0.026
-1.99690e-03,0.002,-0.022
-1.99686e-03,0.002,0.018
-1.99683e-03,0.002,-0.006
-1.99680e-03,0.002,0.022
-1.99677e-03,0.01,-0.022
-1.99674e-03,0.01,0.022
-1.99670e-03,0.006,-0.01
-1.99667e-03,0.006,0.022
-1.99664e-03,0.022,-0.01
-1.99661e-03,0.002,0.022
-1.99658e-03,0.002,-0.018
-1.99654e-03,0.014,0.03
-1.99651e-03,0.002,-0.014
-1.99648e-03,0.002,0.014
-1.99645e-03,0.014,-0.022
-1.99642e-03,0.014,0.014
-1.99638e-03,0.018,-0.018
-1.99635e-03,0.022,0.018
-1.99632e-03,0.002,-0.022
-1.99629e-03,0.01,0.03
-1.99626e-03,0.022,-0.018
-1.99622e-03,0.002,0.018
-1.99619e-03,-0.002,-0.01
-1.99616e-03,-0.006,0.026
-1.99613e-03,-0.006,-0.03
-1.99610e-03,0.002,0.014
-1.99606e-03,0.01,-0.022
-1.99603e-03,0.002,0.018
-1.99600e-03,-0.002,-0.018
-1.99597e-03,-0.002,0.018
-1.99594e-03,-0.002,-0.014
-1.99590e-03,0.002,0.018
-1.99587e-03,-0.014,-0.01
-1.99584e-03,-0.006,0.022
-1.99581e-03,0.006,-0.022
-1.99578e-03,-0.01,0.01
-1.99574e-03,-0.006,-0.018
-1.99571e-03,0.006,0.022
-1.99568e-03,0.002,-0.022
-1.99565e-03,-0.002,0.01
-1.99562e-03,-0.006,-0.014
-1.99558e-03,-0.014,0.022
-1.99555e-03,-0.002,-0.018
-1.99552e-03,0.002,0.014
-1.99549e-03,-0.002,-0.014
-1.99546e-03,-0.002,0.014
-1.99542e-03,0.006,-0.014
-1.99539e-03,0.002,0.014
-1.99536e-03,0.01,-0.018
-1.99533e-03,0.01,0.014
-1.99530e-03,0.002,-0.014
-1.99526e-03,0.01,0.018
-1.99523e-03,0.01,-0.018
-1.99520e-03,0.006,0.014
-1.99517e-03,0.01,-0.018
-1.99514e-03,0.022,0.014
-1.99510e-03,0.002,-0.014
-1.99507e-03,0.006,0.022
-1.99504e-03,0.01,-0.026
-1.99501e-03,0.006,0.014
-1.99498e-03,0.01,-0.014
-1.99494e-03,0.006,0.014
-1.99491e-03,-0.002,-0.014
-1.99488e-03,-0.006,0.014
-1.99485e-03,0.002,-0.014
-1.99482e-03,0.014,0.022
-1.99478e-03,0.006,-0.01
-1.99475e-03,-0.002,0.022
-1.99472e-03,-0.006,-0.022
-1.99469e-03,-0.006,0.022
-1.99466e-03,-0.002,-0.018
-1.99462e-03,-0.006,0.026
-1.99459e-03,-0.002,-0.014
-1.99456e-03,-0.014,0.018
-1.99453e-03,0.002,-0.014
-1.99450e-03,-0.002,0.014
-1.99446e-03,-0.002,-0.014
-1.99443e-03,0.002,0.014
-1.99440e-03,0.002,-0.01
-1.99437e-03,-0.002,0.018
-1.99434e-03,-0.006,-0.014
-1.99430e-03,-0.018,0.022
-1.99427e-03,-0.002,-0.018
-1.99424e-03,0.002,0.018
-1.99421e-03,0.006,-0.018
-1.99418e-03,0.006,0.022
-1.99414e-03,0.01,-0.014
-1.99411e-03,0.002,0.014
-1.99408e-03,0.01,-0.022
-1.99405e-03,0.01,0.014
-1.99402e-03,0.002,-0.018
-1.99398e-03,0.002,0.018
-1.99395e-03,0.006,-0.014
-1.99392e-03,0.014,0.018
-1.99389e-03,0.014,-0.014
-1.99386e-03,0.006,0.014
-1.99382e-03,0.006,-0.022
-1.99379e-03,0.006,0.022
-1.99376e-03,0.006,-0.022
-1.99373e-03,0.014,0.014
-1.99370e-03,0.014,-0.014
-1.99366e-03,0.006,0.014
-1.99363e-03,0.002,-0.018
-1.99360e-03,0.006,0.014
-1.99357e-03,0.006,-0.01
-1.99354e-03,0.002,0.022
-1.99350e-03,0.006,-0.014
-1.99347e-03,0.006,0.014
-1.99344e-03,-0.002,-0.018
-1.99341e-03,-0.006,0.014
-1.99338e-03,-0.002,-0.022
-1.99334e-03,0.006,0.018
-1.99331e-03,0.002,-0.022
-1.99328e-03,-0.01,0.022
-1.99325e-03,-0.006,-0.014
-1.99322e-03,-0.002,0.014
-1.99318e-03,0.002,-0.018
-1.99315e-03,0.002,0.01
-1.99312e-03,-0.002,-0.014
-1.99309e-03,-0.014,0.014
-1.99306e-03,-0.006,-0.018
-1.99302e-03,-0.006,0.018
-1.99299e-03,0.002,-0.022
-1.99296e-03,0.002,0.014
-1.99293e-03,-0.002,-0.018
-1.99290e-03,0.006,0.014
-1.99286e-03,-0.002,-0.018
-1.99283e-03,0.002,0.014
-1.99280e-03,0.01,-0.01
-1.99277e-03,0.006,0.014
-1.99274e-03,0.006,-0.01
-1.99270e-03,-0.002,0.014
-1.99267e-03,0.006,-0.01
-1.99264e-03,0.01,0.03
-1.99261e-03,0.018,-0.018
-1.99258e-03,0.01,0.022
-1.99254e-03,0.002,-0.022
-1.99251e-03,0.006,0.022
-1.99248e-03,0.01,-0.014
-1.99245e-03,0.01,0.018
-1.99242e-03,0.022,-0.014
-1.99238e-03,0.002,0.01
-1.99235e-03,0.01,-0.018
-1.99232e-03,0.014,0.022
-1.99229e-03,0.006,-0.014
-1.99226e-03,0.014,0.014
-1.99222e-03,0.006,-0.014
-1.99219e-03,-0.006,0.022
-1.99216e-03,0.002,-0.018
-1.99213e-03,0.002,0.022
-1.99210e-03,-0.002,-0.014
-1.99206e-03,-0.002,0.022
-1.99203e-03,0.006,-0.01
-1.99200e-03,-0.002,0.014
-1.99197e-03,0.002,-0.014
-1.99194e-03,-0.002,0.014
-1.99190e-03,-0.006,-0.014
-1.99187e-03,0.006,0.022
-1.99184e-03,0.006,-0.01
-1.99181e-03,-0.01,0.01
-1.99178e-03,-0.01,-0.01
-1.99174e-03,0.002,0.018
-1.99171e-03,-0.002,-0.018
-1.99168e-03,-0.002,0.014
-1.99165e-03,-0.002,-0.018
-1.99162e-03,-0.01,0.014
-1.99158e-03,-0.006,-0.018
-1.99155e-03,-0.002,0.018
-1.99152e-03,0.014,-0.018
-1.99149e-03,-0.002,0.022
-1.99146e-03,-0.002,-0.018
-1.99142e-03,0.006,0.026
-1.99139e-03,0.018,-0.026
-1.99136e-03,0.014,0.022
-1.99133e-03,0.022,-0.018
-1.99130e-03,0.014,0.03
-1.99126e-03,-0.006,-0.018
-1.99123e-03,0.014,0.022
-1.99120e-03,0.026,-0.018
-1.99117e-03,0.018,0.014
-1.99114e-03,0.01,-0.01
-1.99110e-03,0.002,0.026
-1.99107e-03,0.01,-0.018
-1.99104e-03,0.01,0.018
-1.99101e-03,0.01,-0.014
-1.99098e-03,0.018,0.018
-1.99094e-03,0.002,-0.01
-1.99091e-03,0.002,0.018
-1.99088e-03,0.006,-0.018
-1.99085e-03,-0.002,0.018
-1.99082e-03,-0.002,-0.018
-1.99078e-03,0.006,0.026
-1.99075e-03,0.01,-0.014
-1.99072e-03,-0.002,0.022
-1.99069e-03,-0.002,-0.022
-1.99066e-03,0.002,0.022
-1.99062e-03,-0.002,-0.01
-1.99059e-03,-0.002,0.014
-1.99056e-03,-0.006,-0.014
-1.99053e-03,-0.006,0.014
-1.99050e-03,0.002,-0.014
-1.99046e-03,0.01,0.018
-1.99043e-03,-0.01,-0.01
-1.99040e-03,-0.002,0.014
-1.99037e-03,-0.014,-0.014
-1.99034e-03,-0.01,0.01
-1.99030e-03,0.002,-0.014
-1.99027e-03,-0.006,0.014
-1.99024e-03,0.006,-0.018
-1.99021e-03,-0.002,0.014
-1.99018e-03,0.002,-0.014
-1.99014e-03,0.01,0.018
-1.99011e-03,0.01,-0.014
-1.99008e-03,0.006,0.018
-1.99005e-03,-0.002,-0.014
-1.99002e-03,0.006,0.018
-1.98998e-03,0.006,-0.01
-1.98995e-03,0.01,0.01
-1.98992e-03,0.006,-0.022
-1.98989e-03,0.01,0.014
-1.98986e-03,0.006,-0.014
-1.98982e-03,0.002,0.018
-1.98979e-03,0.018,-0.01
-1.98976e-03,0.018,0.014
-1.98973e-03,0.018,-0.018
-1.98970e-03,0.014,0.018
-1.98966e-03,-0.002,-0.014
-1.98963e-03,0.002,0.018
-1.98960e-03,0.002,-0.014
-1.98957e-03,0.006,0.018
-1.98954e-03,0.006,-0.018
-1.98950e-03,0.01,0.014
-1.98947e-03,0.002,-0.014
-1.98944e-03,-0.002,0.018
-1.98941e-03,0.01,-0.018
-1.98938e-03,0.01,0.022
-1.98934e-03,-0.002,-0.014
-1.98931e-03,0.006,0.014
-1.98928e-03,-0.014,-0.01
-1.98925e-03,-0.018,0.022
-1.98922e-03,-0.006,-0.022
-1.98918e-03,0.002,0.022
-1.98915e-03,-0.002,-0.026
-1.98912e-03,0.006,0.022
-1.98909e-03,-0.002,-0.01
-1.98906e-03,-0.01,0.022
-1.98902e-03,-0.002,-0.014
-1.98899e-03,0.002,0.022
-1.98896e-03,-0.002,-0.014
-1.98893e-03,-0.006,0.014
-1.98890e-03,-0.002,-0.018
-1.98886e-03,0.006,0.018
-1.98883e-03,0.002,-0.018
-1.98880e-03,0.014,0.03
-1.98877e-03,-0.002,-0.03
-1.98874e-03,-0.01,0.022
-1.98870e-03,0.014,-0.022
-1.98867e-03,0.01,0.026
-1.98864e-03,-0.002,-0.014
-1.98861e-03,0.018,0.026
-1.98858e-03,0.002,-0.026
-1.98854e-03,0.006,0.018
-1.98851e-03,0.03,-0.022
-1.98848e-03,0.014,0.014
-1.98845e-03,0.002,-0.014
-1.98842e-03,0.018,0.03
-1.98838e-03,0.006,-0.03
-1.98835e-03,0.01,0.022
-1.98832e-03,0.002,-0.014
-1.98829e-03,0.01,0.03
-1.98826e-03,0.014,-0.022
-1.98822e-03,0.006,0.014
-1.98819e-03,0.002,-0.006
-1.98816e-03,0.002,0.014
-1.98813e-03,0.014,-0.014
-1.98810e-03,0.01,0.01
-1.98806e-03,0.002,-0.022
-1.98803e-03,0.002,0.018
-1.98800e-03,-0.006,-0.01
-1.98797e-03,-0.002,0.018
-1.98794e-03,0.014,-0.022
-1.98790e-03,-0.002,0.022
-1.98787e-03,-0.002,-0.018
-1.98784e-03,0.006,0.022
-1.98781e-03,-0.014,-0.018
-1.98778e-03,-0.006,0.014
-1.98774e-03,0.014,-0.018
-1.98771e-03,-0.006,0.014
-1.98768e-03,-0.01,-0.01
-1.98765e-03,-0.01,0.022
-1.98762e-03,-0.01,-0.014
-1.98758e-03,-0.006,0.018
-1.98755e-03,0.018,-0.022
-1.98752e-03,0.006,0.022
-1.98749e-03,-0.002,-0.01
-1.98746e-03,0.01,0.022
-1.98742e-03,0.006,-0.014
-1.98739e-03,0.01,0.018
-1.98736e-03,0.006,-0.006
-1.98733e-03,0.002,0.014
-1.98730e-03,0.01,-0.018
-1.98726e-03,0.01,0.014
-1.98723e-03,0.014,-0.006
-1.98720e-03,0.014,0.014
-1.98717e-03,0.014,-0.01
-1.98714e-03,0.006,0.014
-1.98710e-03,0.006,-0.014
-1.98707e-03,0.006,0.018
-1.98704e-03,0.002,-0.01
-1.98701e-03,0.018,0.022
-1.98698e-03,0.006,-0.01
-1.98694e-03,0.018,0.018
-1.98691e-03,0.006,-0.01
-1.98688e-03,0.006,0.018
-1.98685e-03,0.01,-0.01
-1.98682e-03,0.01,0.014
-1.98678e-03,0.002,-0.006
-1.98675e-03,0.002,0.018
-1.98672e-03,-0.002,-0.01
-1.98669e-03,0.01,0.014
-1.98666e-03,0.014,-0.01
-1.98662e-03,0.006,0.022
-1.98659e-03,-0.002,-0.022
-1.98656e-03,-0.002,0.026
-1.98653e-03,-0.002,-0.01
-1.98650e-03,0.006,0.014
-1.98646e-03,-0.002,-0.01
-1.98643e-03,-0.006,0.022
-1.98640e-03,-0.006,-0.014
-1.98637e-03,-0.006,0.022
-1.98634e-03,-0.006,-0.014
-1.98630e-03,0.006,0.018
-1.98627e-03,0.006,-0.014
-1.98624e-03,-0.002,0.022
-1.98621e-03,0.002,-0.014
-1.98618e-03,0.006,0.026
-1.98614e-03,0.01,-0.014
-1.98611e-03,0.014,0.014
-1.98608e-03,0.002,-0.006
-1.98605e-03,0.002,0.018
-1.98602e-03,0.01,-0.014
-1.98598e-03,0.01,0.018
-1.98595e-03,0.014,-0.006
-1.98592e-03,0.01,0.022
-1.98589e-03,0.014,-0.014
-1.98586e-03,0.014,0.022
-1.98582e-03,0.01,-0.022
-1.98579e-03,-0.006,0.022
-1.98576e-03,0.002,-0.01
-1.98573e-03,0.01,0.018
-1.98570e-03,0.014,-0.022
-1.98566e-03,0.01,0.014
-1.98563e-03,-0.002,-0.018
-1.98560e-03,0.014,0.014
-1.98557e-03,0.002,-0.014
-1.98554e-03,0.01,0.014
-1.98550e-03,0.014,-0.014
-1.98547e-03,-0.006,0.01
-1.98544e-03,0.006,-0.01
-1.98541e-03,-0.002,0.026
-1.98538e-03,0.014,-0.018
-1.98534e-03,0.002,0.026
-1.98531e-03,0.002,-0.018
-1.98528e-03,0.002,0.022
-1.98525e-03,-0.01,-0.014
-1.98522e-03,-0.006,0.014
-1.98518e-03,0.002,-0.01
-1.98515e-03,-0.002,0.018
-1.98512e-03,-0.01,-0.01
-1.98509e-03,-0.006,0.022
-1.98506e-03,-0.002,-0.014
-1.98502e-03,0.01,0.018
-1.98499e-03,0.002,-0.014
-1.98496e-03,-0.014,0.018
-1.98493e-03,-0.002,-0.022
-1.98490e-03,0.01,0.022
-1.98486e-03,0.006,-0.014
-1.98483e-03,0.006,0.018
-1.98480e-03,0.002,-0.01
-1.98477e-03,0.002,0.018
-1.98474e-03,0.014,-0.014
-1.98470e-03,-0.002,0.01
-1.98467e-03,0.01,-0.018
-1.98464e-03,0.014,0.014
-1.98461e-03,0.01,-0.022
-1.98458e-03,0.01,0.014
-1.98454e-03,0.014,-0.014
-1.98451e-03,0.006,0.018
-1.98448e-03,0.018,-0.01
-1.98445e-03,0.022,0.018
-1.98442e-03,0.006,-0.014
-1.98438e-03,-0.002,0.022
-1.98435e-03,0.014,-0.018
-1.98432e-03,0.01,0.018
-1.98429e-03,0.006,-0.018
-1.98426e-03,0.014,0.018
-1.98422e-03,0.006,-0.018
-1.98419e-03,-0.01,0.022
-1.98416e-03,-0.01,-0.018
-1.98413e-03,0.014,0.022
-1.98410e-03,0.018,-0.022
-1.98406e-03,-0.014,0.014
-1.98403e-03,-0.006,-0.014
-1.98400e-03,-0.002,0.026
-1.98397e-03,-0.014,-0.022
-1.98394e-03,-0.006,0.018
-1.98390e-03,0.002,-0.014
-1.98387e-03,-0.014,0.01
-1.98384e-03,-0.014,-0.018
-1.98381e-03,0.002,0.018
-1.98378e-03,0.002,-0.018
-1.98374e-03,0.002,0.018
-1.98371e-03,-0.002,-0.014
-1.98368e-03,-0.01,0.022
-1.98365e-03,-0.006,-0.018
-1.98362e-03,-0.006,0.01
-1.98358e-03,-0.01,-0.01
-1.98355e-03,-0.006,0.01
-1.98352e-03,0.006,-0.022
-1.98349e-03,0.006,0.014
-1.98346e-03,-0.006,-0.01
-1.98342e-03,0.01,0.022
-1.98339e-03,-0.002,-0.022
-1.98336e-03,-0.002,0.01
-1.98333e-03,0.01,-0.022
-1.98330e-03,0.002,0.022
-1.98326e-03,0.01,-0.014
-1.98323e-03,0.006,0.022
-1.98320e-03,0.006,-0.014
-1.98317e-03,0.01,0.018
-1.98314e-03,0.01,-0.022
-1.98310e-03,-0.006,0.014
-1.98307e-03,0.006,-0.018
-1.98304e-03,0.002,0.018
-1.98301e-03,0.018,-0.026
-1.98298e-03,0.002,0.01
-1.98294e-03,-0.002,-0.022
-1.98291e-03,0.014,0.018
-1.98288e-03,0.018,-0.026
-1.98285e-03,0.002,0.022
-1.98282e-03,0.01,-0.014
-1.98278e-03,0.002,0.026
-1.98275e-03,-0.01,-0.018
-1.98272e-03,0.006,0.022
-1.98269e-03,0.002,-0.018
-1.98266e-03,-0.006,0.014
-1.98262e-03,-0.002,-0.018
-1.98259e-03,-0.002,0.014
-1.98256e-03,-0.006,-0.014
-1.98253e-03,0.002,0.014
-1.98250e-03,0.002,-0.014
-1.98246e-03,0.006,0.018
-1.98243e-03,-0.01,-0.014
-1.98240e-03,-0.006,0.022
-1.98237e-03,-0.01,-0.018
-1.98234e-03,-0.014,0.018
-1.98230e-03,-0.006,-0.022
-1.98227e-03,0.002,0.014
-1.98224e-03,0.006,-0.014
-1.98221e-03,-0.006,0.01
-1.98218e-03,0.01,-0.014
-1.98214e-03,0.014,0.014
-1.98211e-03,0.014,-0.014
-1.98208e-03,0.006,0.014
-1.98205e-03,-0.002,-0.018
-1.98202e-03,0.002,0.026
-1.98198e-03,0.01,-0.018
-1.98195e-03,0.006,0.014
-1.98192e-03,0.018,-0.014
-1.98189e-03,0.01,0.014
-1.98186e-03,0.006,-0.014
-1.98182e-03,0.006,0.022
-1.98179e-03,0.014,-0.014
-1.98176e-03,0.01,0.018
-1.98173e-03,0.006,-0.014
-1.98170e-03,-0.002,0.014
-1.98166e-03,0.002,-0.01
-1.98163e-03,0.014,0.018
-1.98160e-03,0.014,-0.014
-1.98157e-03,0.01,0.022
-1.98154e-03,0.01,-0.014
-1.98150e-03,-0.002,0.018
-1.98147e-03,-0.002,-0.022
-1.98144e-03,0.01,0.01
-1.98141e-03,0.002,-0.01
-1.98138e-03,0.006,0.018
-1.98134e-03,0.002,-0.018
-1.98131e-03,-0.002,0.01
-1.98128e-03,-0.002,-0.014
-1.98125e-03,0.006,0.014
-1.98122e-03,-0.006,-0.014
-1.98118e-03,-0.002,0.018
-1.98115e-03,0.002,-0.014
-1.98112e-03,-0.002,0.022
-1.98109e-03,-0.006,-0.01
-1.98106e-03,-0.006,0.018
-1.98102e-03,-0.002,-0.014
-1.98099e-03,0.002,0.01
-1.98096e-03,-0.002,-0.01
-1.98093e-03,-0.002,0.014
-1.98090e-03,-0.002,-0.01
-1.98086e-03,0.006,0.014
-1.98083e-03,0.002,-0.018
-1.98080e-03,-0.002,0.014
-1.98077e-03,-0.002,-0.018
-1.98074e-03,0.002,0.01
-1.98070e-03,0.006,-0.022
-1.98067e-03,0.006,0.014
-1.98064e-03,0.018,-0.014
-1.98061e-03,0.01,0.014
-1.98058e-03,-0.002,-0.026
-1.98054e-03,-0.002,0.018
-1.98051e-03,0.002,-0.018
-1.98048e-03,0.01,0.018
-1.98045e-03,0.01,-0.01
-1.98042e-03,-0.002,0.01
-1.98038e-03,0.006,-0.018
-1.98035e-03,0.018,0.014
-1.98032e-03,0.01,-0.022
-1.98029e-03,0.01,0.018
-1.98026e-03,0.006,-0.014
-1.98022e-03,-0.006,0.018
-1.98019e-03,0.01,-0.014
-1.98016e-03,0.002,0.01
-1.98013e-03,-0.002,-0.018
-1.98010e-03,0.002,0.014
-1.98006e-03,0.002,-0.014
-1.98003e-03,-0.002,0.018
-1.98000e-03,0.002,-0.014
-1.97997e-03,0.014,0.006
-1.97994e-03,-0.018,-0.022
-1.97990e-03,-0.01,0.022
-1.97987e-03,0.002,-0.026
-1.97984e-03,-0.01,0.014
-1.97981e-03,-0.006,-0.018
-1.97978e-03,-0.006,0.022
-1.97974e-03,-0.01,-0.018
-1.97971e-03,0.006,0.014
-1.97968e-03,0.01,-0.022
-1.97965e-03,-0.014,0.014
-1.97962e-03,-0.002,-0.022
-1.97958e-03,0.006,0.018
-1.97955e-03,0.002,-0.022
-1.97952e-03,-0.006,0.014
-1.97949e-03,-0.006,-0.01
-1.97946e-03,0.006,0.018
-1.97942e-03,0.01,-0.018
-1.97939e-03,0.006,0.006
-1.97936e-03,0.006,-0.01
-1.97933e-03,-0.006,0.022
-1.97930e-03,-0.002,-0.022
-1.97926e-03,0.018,0.014
-1.97923e-03,0.018,-0.014
-1.97920e-03,0.002,0.018
-1.97917e-03,-0.002,-0.018
-1.97914e-03,0.006,0.022
-1.97910e-03,0.01,-0.018
-1.97907e-03,0.006,0.022
-1.97904e-03,0.01,-0.026
-1.97901e-03,0.01,0.018
-1.97898e-03,0.01,-0.018
-1.97894e-03,0.002,0.018
-1.97891e-03,-0.002,-0.022
-1.97888e-03,0.01,0.022
-1.97885e-03,0.006,-0.014
-1.97882e-03,0.002,0.014
-1.97878e-03,-0.002,-0.01
-1.97875e-03,0.002,0.014
-1.97872e-03,0.01,-0.014
-1.97869e-03,0.006,0.01
-1.97866e-03,0.002,-0.014
-1.97862e-03,-0.002,0.018
-1.97859e-03,-0.01,-0.014
-1.97856e-03,-0.006,0.014
-1.97853e-03,-0.006,-0.018
-1.97850e-03,0.002,0.022
-1.97846e-03,-0.006,-0.014
-1.97843e-03,-0.002,0.018
-1.97840e-03,-0.002,-0.014
-1.97837e-03,-0.002,0.01
-1.97834e-03,0.002,-0.014
-1.97830e-03,-0.002,0.014
-1.97827e-03,-0.01,-0.018
-1.97824e-03,-0.002,0.022
-1.97821e-03,-0.002,-0.018
-1.97818e-03,0.002,0.01
-1.97814e-03,0.014,-0.018
-1.97811e-03,0.006,0.014
-1.97808e-03,0.01,-0.018
-1.97805e-03,0.002,0.018
-1.97802e-03,-0.002,-0.01
-1.97798e-03,0.014,0.014
-1.97795e-03,-0.002,-0.014
-1.97792e-03,-0.002,0.018
-1.97789e-03,-0.002,-0.01
-1.97786e-03,0.01,0.01
-1.97782e-03,0.006,-0.01
-1.97779e-03,0.022,0.018
-1.97776e-03,0.006,-0.014
-1.97773e-03,0.006,0.022
-1.97770e-03,-0.006,-0.01
-1.97766e-03,0.002,0.014
-1.97763e-03,0.01,-0.018
-1.97760e-03,0.01,0.014
-1.97757e-03,0.006,-0.018
-1.97754e-03,0.01,0.014
-1.97750e-03,0.002,-0.01
-1.97747e-03,0.01,0.01
-1.97744e-03,0.01,-0.014
-1.97741e-03,-0.002,0.018
-1.97738e-03,-0.002,-0.018
-1.97734e-03,0.006,0.018
-1.97731e-03,-0.006,-0.022
-1.97728e-03,-0.014,0.014
-1.97725e-03,-0.034,-0.022
-1.97722e-03,-0.03,0.014
-1.97718e-03,-0.026,-0.05
-1.97715e-03,-0.03,0.042
-1.97712e-03,-0.002,-0.034
-1.97709e-03,0.01,0.034
-1.97706e-03,0.006,-0.034
-1.97702e-03,0.006,0.026
-1.97699e-03,-0.006,-0.018
-1.97696e-03,-0.014,0.018
-1.97693e-03,-0.014,-0.018
-1.97690e-03,-0.002,0.026
-1.97686e-03,0.014,-0.026
-1.97683e-03,0.01,0.014
-1.97680e-03,0.002,-0.018
-1.97677e-03,0.002,0.022
-1.97674e-03,0.002,-0.022
-1.97670e-03,0.002,0.018
-1.97667e-03,0.006,-0.01
-1.97664e-03,-0.002,0.018
-1.97661e-03,0.014,-0.022
-1.97658e-03,0.014,0.01
-1.97654e-03,0.006,-0.014
-1.97651e-03,0.01,0.014
-1.97648e-03,0.006,-0.014
-1.97645e-03,0.006,0.014
-1.97642e-03,0.01,-0.014
-1.97638e-03,0.014,0.018
-1.97635e-03,0.002,-0.01
-1.97632e-03,0.006,0.014
-1.97629e-03,0.014,-0.01
-1.97626e-03,0.014,0.018
-1.97622e-03,0.018,-0.01
-1.97619e-03,0.006,0.018
-1.97616e-03,0.006,-0.014
-1.97613e-03,0.002,0.018
-1.97610e-03,0.006,-0.018
-1.97606e-03,-0.006,0.018
-1.97603e-03,-0.01,-0.014
-1.97600e-03,-0.002,0.01
-1.97597e-03,0.006,-0.014
-1.97594e-03,-0.002,0.018
-1.97590e-03,0.006,-0.01
-1.97587e-03,-0.006,0.022
-1.97584e-03,-0.014,-0.01
-1.97581e-03,0.01,0.018
-1.97578e-03,0.002,-0.018
-1.97574e-03,-0.01,0.026
-1.97571e-03,-0.01,-0.014
-1.97568e-03,-0.01,0.022
-1.97565e-03,0.002,-0.018
-1.97562e-03,0.006,0.018
-1.97558e-03,-0.006,-0.022
-1.97555e-03,-0.006,0.018
-1.97552e-03,-0.006,-0.022
-1.97549e-03,0.006,0.018
-1.97546e-03,0.01,-0.014
-1.97542e-03,0.006,0.026
-1.97539e-03,0.014,-0.014
-1.97536e-03,0.002,0.01
-1.97533e-03,0.01,-0.006
