Teste de Desempeño/Dualpex 071 performance test/Dualpex 071 performance test data CSV/T0034.CSV

Model,DPO2012
Firmware Version,1.25

Point Format,Y,
Horizontal Units,S,
Horizontal Scale,0.001,
Sample Interval,8e-08,
Filter Frequency,1e+08,
Record Length,125000,
Gating,0.0% to 100.0%,
Probe Attenuation,10,
Vertical Units,V,
Vertical Offset,0,
Vertical Scale,0.1,
Label,,
TIME,CH2,CH2 Peak Detect
-5.00000e-03,0.01,0.03
-4.99992e-03,0.01,-0.006
-4.99984e-03,0.01,0.018
-4.99976e-03,0.006,-0.014
-4.99968e-03,0.022,0.026
-4.99960e-03,0.006,-0.006
-4.99952e-03,0.03,0.026
-4.99944e-03,0.01,-0.01
-4.99936e-03,0.014,0.03
-4.99928e-03,0.014,-0.006
-4.99920e-03,0.014,0.026
-4.99912e-03,0.01,-0.006
-4.99904e-03,0.01,0.026
-4.99896e-03,0.014,-0.006
-4.99888e-03,-0.002,0.026
-4.99880e-03,0.018,-0.01
-4.99872e-03,0.006,0.026
-4.99864e-03,0.022,-0.006
-4.99856e-03,0.006,0.022
-4.99848e-03,0.014,-0.006
-4.99840e-03,0.022,0.022
-4.99832e-03,0.014,-0.006
-4.99824e-03,0.014,0.026
-4.99816e-03,-0.002,-0.01
-4.99808e-03,0.018,0.03
-4.99800e-03,0.01,-0.006
-4.99792e-03,0.018,0.026
-4.99784e-03,0.01,-0.01
-4.99776e-03,0.01,0.026
-4.99768e-03,0.002,-0.006
-4.99760e-03,0.014,0.026
-4.99752e-03,0.018,-0.006
-4.99744e-03,-0.006,0.03
-4.99736e-03,0.026,-0.014
-4.99728e-03,0.01,0.034
-4.99720e-03,0.03,-0.01
-4.99712e-03,0.002,0.03
-4.99704e-03,0.002,-0.018
-4.99696e-03,0.014,0.034
-4.99688e-03,0.006,-0.01
-4.99680e-03,0.01,0.034
-4.99672e-03,0.014,-0.01
-4.99664e-03,0.022,0.022
-4.99656e-03,0.01,-0.006
-4.99648e-03,0.014,0.026
-4.99640e-03,0.01,-0.006
-4.99632e-03,0.018,0.026
-4.99624e-03,0.006,-0.01
-4.99616e-03,0.006,0.03
-4.99608e-03,0.01,-0.014
-4.99600e-03,0.006,0.03
-4.99592e-03,0.01,-0.006
-4.99584e-03,0.002,0.026
-4.99576e-03,0.022,-0.014
-4.99568e-03,0.022,0.026
-4.99560e-03,0.01,-0.006
-4.99552e-03,0.014,0.022
-4.99544e-03,0.01,-0.002
-4.99536e-03,0.01,0.026
-4.99528e-03,0.006,-0.006
-4.99520e-03,0.014,0.022
-4.99512e-03,0.018,-0.01
-4.99504e-03,0.006,0.026
-4.99496e-03,0.018,-0.002
-4.99488e-03,0.006,0.022
-4.99480e-03,0.018,-0.014
-4.99472e-03,0.002,0.026
-4.99464e-03,0.014,-0.006
-4.99456e-03,-0.002,0.022
-4.99448e-03,0.006,-0.01
-4.99440e-03,0.014,0.03
-4.99432e-03,0.002,-0.006
-4.99424e-03,0.014,0.026
-4.99416e-03,-0.002,-0.006
-4.99408e-03,0.014,0.026
-4.99400e-03,0.01,-0.01
-4.99392e-03,0.014,0.022
-4.99384e-03,0.01,-0.01
-4.99376e-03,0.022,0.026
-4.99368e-03,0.014,-0.01
-4.99360e-03,0.006,0.022
-4.99352e-03,0.034,-0.006
-4.99344e-03,0.002,0.03
-4.99336e-03,0.01,-0.014
-4.99328e-03,0.002,0.034
-4.99320e-03,0.01,-0.014
-4.99312e-03,0.018,0.03
-4.99304e-03,0.01,-0.018
-4.99296e-03,0.006,0.026
-4.99288e-03,0.002,-0.002
-4.99280e-03,0.022,0.03
-4.99272e-03,0.002,-0.01
-4.99264e-03,0.022,0.03
-4.99256e-03,0.014,-0.006
-4.99248e-03,0.026,0.022
-4.99240e-03,0.014,-0.01
-4.99232e-03,0.006,0.03
-4.99224e-03,0.03,-0.014
-4.99216e-03,0.002,0.03
-4.99208e-03,0.026,-0.014
-4.99200e-03,0.01,0.03
-4.99192e-03,0.018,-0.014
-4.99184e-03,0.014,0.026
-4.99176e-03,0.014,-0.014
-4.99168e-03,0.006,0.03
-4.99160e-03,0.006,-0.01
-4.99152e-03,0.022,0.026
-4.99144e-03,-0.002,-0.01
-4.99136e-03,0.026,0.022
-4.99128e-03,-0.002,-0.006
-4.99120e-03,0.03,0.026
-4.99112e-03,0.01,-0.014
-4.99104e-03,0.018,0.03
-4.99096e-03,0.018,-0.014
-4.99088e-03,0.01,0.026
-4.99080e-03,0.022,-0.002
-4.99072e-03,0.002,0.026
-4.99064e-03,0.022,-0.01
-4.99056e-03,0.014,0.026
-4.99048e-03,0.014,-0.01
-4.99040e-03,0.006,0.03
-4.99032e-03,0.01,-0.006
-4.99024e-03,0.01,0.022
-4.99016e-03,0.01,-0.002
-4.99008e-03,0.018,0.022
-4.99000e-03,0.002,-0.006
-4.98992e-03,0.03,0.022
-4.98984e-03,0.006,-0.01
-4.98976e-03,0.018,0.03
-4.98968e-03,0.01,-0.01
-4.98960e-03,0.014,0.03
-4.98952e-03,0.022,-0.006
-4.98944e-03,0.01,0.03
-4.98936e-03,0.018,-0.01
-4.98928e-03,0.01,0.03
-4.98920e-03,0.022,-0.014
-4.98912e-03,0.022,0.034
-4.98904e-03,0.002,-0.01
-4.98896e-03,0.006,0.03
-4.98888e-03,0.014,-0.01
-4.98880e-03,0.014,0.03
-4.98872e-03,-0.01,-0.006
-4.98864e-03,0.01,0.03
-4.98856e-03,-0.002,-0.014
-4.98848e-03,0.014,0.03
-4.98840e-03,0.006,-0.01
-4.98832e-03,0.01,0.026
-4.98824e-03,0.018,-0.014
-4.98816e-03,0.006,0.026
-4.98808e-03,0.006,-0.006
-4.98800e-03,0.014,0.022
-4.98792e-03,0.018,-0.006
-4.98784e-03,0.014,0.026
-4.98776e-03,0.01,-0.006
-4.98768e-03,0.014,0.026
-4.98760e-03,0.006,-0.01
-4.98752e-03,0.01,0.03
-4.98744e-03,0.002,-0.002
-4.98736e-03,0.018,0.026
-4.98728e-03,0.006,-0.014
-4.98720e-03,0.018,0.03
-4.98712e-03,0.01,-0.002
-4.98704e-03,0.01,0.026
-4.98696e-03,0.01,-0.006
-4.98688e-03,-0.006,0.026
-4.98680e-03,0.014,-0.006
-4.98672e-03,0.014,0.026
-4.98664e-03,0.014,-0.01
-4.98656e-03,-0.006,0.026
-4.98648e-03,0.018,-0.034
-4.98640e-03,0.022,0.054
-4.98632e-03,0.018,-0.014
-4.98624e-03,0.006,0.038
-4.98616e-03,-0.002,-0.014
-4.98608e-03,0.022,0.03
-4.98600e-03,-0.006,-0.006
-4.98592e-03,0.014,0.03
-4.98584e-03,0.002,-0.01
-4.98576e-03,0.014,0.026
-4.98568e-03,0.014,-0.006
-4.98560e-03,0.002,0.022
-4.98552e-03,0.018,-0.006
-4.98544e-03,0.014,0.022
-4.98536e-03,0.018,-0.01
-4.98528e-03,0.01,0.03
-4.98520e-03,0.01,-0.002
-4.98512e-03,0.018,0.026
-4.98504e-03,0.006,-0.01
-4.98496e-03,0.022,0.022
-4.98488e-03,0.01,-0.018
-4.98480e-03,0.026,0.026
-4.98472e-03,0.002,-0.014
-4.98464e-03,0.018,0.03
-4.98456e-03,0.002,-0.01
-4.98448e-03,0.01,0.03
-4.98440e-03,0.014,-0.006
-4.98432e-03,0.002,0.026
-4.98424e-03,0.014,-0.006
-4.98416e-03,0.006,0.026
-4.98408e-03,0.018,-0.006
-4.98400e-03,0.006,0.022
-4.98392e-03,0.014,-0.006
-4.98384e-03,0.006,0.022
-4.98376e-03,0.018,-0.006
-4.98368e-03,0.01,0.022
-4.98360e-03,0.01,-0.014
-4.98352e-03,0.014,0.03
-4.98344e-03,0.002,-0.01
-4.98336e-03,0.014,0.022
-4.98328e-03,0.002,-0.014
-4.98320e-03,0.018,0.026
-4.98312e-03,0.01,-0.01
-4.98304e-03,0.002,0.03
-4.98296e-03,0.006,-0.006
-4.98288e-03,0.002,0.022
-4.98280e-03,0.026,-0.01
-4.98272e-03,0.002,0.026
-4.98264e-03,0.01,-0.03
-4.98256e-03,0.006,0.026
-4.98248e-03,0.006,-0.01
-4.98240e-03,0.01,0.018
-4.98232e-03,-0.002,-0.014
-4.98224e-03,0.01,0.018
-4.98216e-03,-0.006,-0.014
-4.98208e-03,0.01,0.018
-4.98200e-03,0.006,-0.014
-4.98192e-03,0.006,0.014
-4.98184e-03,-0.002,-0.014
-4.98176e-03,0.002,0.014
-4.98168e-03,0.006,-0.018
-4.98160e-03,-0.01,0.018
-4.98152e-03,0.006,-0.018
-4.98144e-03,-0.006,0.014
-4.98136e-03,-0.01,-0.018
-4.98128e-03,-0.002,0.014
-4.98120e-03,0.018,-0.026
-4.98112e-03,0.014,0.022
-4.98104e-03,0.002,-0.026
-4.98096e-03,0.01,0.022
-4.98088e-03,0.002,-0.018
-4.98080e-03,0.014,0.014
-4.98072e-03,0.006,-0.022
-4.98064e-03,0.006,0.014
-4.98056e-03,0.006,-0.014
-4.98048e-03,-0.006,0.014
-4.98040e-03,0.002,-0.01
-4.98032e-03,-0.006,0.018
-4.98024e-03,0.006,-0.014
-4.98016e-03,-0.002,0.01
-4.98008e-03,0.002,-0.014
-4.98000e-03,-0.01,0.014
-4.97992e-03,0.006,-0.014
-4.97984e-03,-0.006,0.014
-4.97976e-03,-0.006,-0.022
-4.97968e-03,0.002,0.014
-4.97960e-03,0.006,-0.022
-4.97952e-03,0.014,0.014
-4.97944e-03,-0.006,-0.018
-4.97936e-03,0.006,0.014
-4.97928e-03,-0.002,-0.018
-4.97920e-03,-0.002,0.01
-4.97912e-03,0.006,-0.018
-4.97904e-03,0.006,0.014
-4.97896e-03,0.002,-0.018
-4.97888e-03,-0.006,0.014
-4.97880e-03,-0.002,-0.018
-4.97872e-03,-0.01,0.014
-4.97864e-03,-0.002,-0.018
-4.97856e-03,-0.006,0.014
-4.97848e-03,-0.006,-0.018
-4.97840e-03,-0.006,0.014
-4.97832e-03,-0.01,-0.018
-4.97824e-03,0.01,0.01
-4.97816e-03,-0.006,-0.018
-4.97808e-03,-0.002,0.014
-4.97800e-03,-0.002,-0.018
-4.97792e-03,-0.002,0.01
-4.97784e-03,0.006,-0.018
-4.97776e-03,-0.002,0.014
-4.97768e-03,-0.006,-0.018
-4.97760e-03,-0.01,0.01
-4.97752e-03,0.002,-0.018
-4.97744e-03,-0.002,0.014
-4.97736e-03,-0.002,-0.022
-4.97728e-03,-0.014,0.014
-4.97720e-03,-0.01,-0.018
-4.97712e-03,-0.002,0.014
-4.97704e-03,-0.006,-0.03
-4.97696e-03,-0.002,0.01
-4.97688e-03,-0.014,-0.022
-4.97680e-03,-0.002,0.018
-4.97672e-03,0.002,-0.018
-4.97664e-03,-0.006,0.006
-4.97656e-03,0.006,-0.026
-4.97648e-03,-0.002,0.01
-4.97640e-03,0.006,-0.026
-4.97632e-03,-0.01,0.014
-4.97624e-03,-0.01,-0.026
-4.97616e-03,-0.01,0.014
-4.97608e-03,-0.002,-0.034
-4.97600e-03,-0.01,0.014
-4.97592e-03,-0.006,-0.018
-4.97584e-03,-0.006,0.01
-4.97576e-03,-0.01,-0.022
-4.97568e-03,-0.002,0.018
-4.97560e-03,0.006,-0.018
-4.97552e-03,-0.006,0.01
-4.97544e-03,0.002,-0.018
-4.97536e-03,-0.006,0.014
-4.97528e-03,-0.002,-0.014
-4.97520e-03,0.002,0.014
-4.97512e-03,-0.002,-0.018
-4.97504e-03,-0.01,0.018
-4.97496e-03,-0.006,-0.022
-4.97488e-03,-0.002,0.014
-4.97480e-03,-0.002,-0.022
-4.97472e-03,-0.002,0.01
-4.97464e-03,-0.006,-0.018
-4.97456e-03,-0.01,0.006
-4.97448e-03,-0.01,-0.018
-4.97440e-03,0.006,0.014
-4.97432e-03,-0.014,-0.018
-4.97424e-03,-0.002,0.01
-4.97416e-03,-0.006,-0.018
-4.97408e-03,0.006,0.01
-4.97400e-03,-0.006,-0.018
-4.97392e-03,0.002,0.006
-4.97384e-03,0.002,-0.018
-4.97376e-03,-0.006,0.01
-4.97368e-03,-0.002,-0.022
-4.97360e-03,-0.006,0.006
-4.97352e-03,0.002,-0.022
-4.97344e-03,-0.002,0.014
-4.97336e-03,0.018,-0.03
-4.97328e-03,-0.002,0.018
-4.97320e-03,0.006,-0.034
-4.97312e-03,-0.002,0.022
-4.97304e-03,-0.018,-0.026
-4.97296e-03,0.01,0.018
-4.97288e-03,-0.006,-0.022
-4.97280e-03,0.006,0.018
-4.97272e-03,-0.026,-0.03
-4.97264e-03,0.006,0.018
-4.97256e-03,-0.002,-0.026
-4.97248e-03,0.002,0.014
-4.97240e-03,0.006,-0.022
-4.97232e-03,-0.006,0.018
-4.97224e-03,0.006,-0.018
-4.97216e-03,-0.006,0.014
-4.97208e-03,0.006,-0.022
-4.97200e-03,-0.01,0.01
-4.97192e-03,0.01,-0.022
-4.97184e-03,0.002,0.006
-4.97176e-03,-0.006,-0.018
-4.97168e-03,-0.002,0.01
-4.97160e-03,-0.01,-0.03
-4.97152e-03,0.002,0.014
-4.97144e-03,-0.01,-0.018
-4.97136e-03,-0.006,0.01
-4.97128e-03,-0.006,-0.022
-4.97120e-03,-0.002,0.01
-4.97112e-03,0.002,-0.022
-4.97104e-03,-0.006,0.01
-4.97096e-03,0.006,-0.022
-4.97088e-03,-0.01,0.014
-4.97080e-03,0.01,-0.018
-4.97072e-03,-0.006,0.018
-4.97064e-03,0.006,-0.018
-4.97056e-03,-0.002,0.01
-4.97048e-03,0.006,-0.018
-4.97040e-03,-0.006,0.01
-4.97032e-03,0.006,-0.018
-4.97024e-03,0.01,0.01
-4.97016e-03,-0.006,-0.018
-4.97008e-03,0.002,0.014
-4.97000e-03,0.006,-0.022
-4.96992e-03,-0.01,0.014
-4.96984e-03,-0.006,-0.014
-4.96976e-03,-0.006,0.014
-4.96968e-03,0.006,-0.022
-4.96960e-03,-0.006,0.014
-4.96952e-03,0.01,-0.018
-4.96944e-03,-0.002,0.022
-4.96936e-03,0.006,-0.022
-4.96928e-03,-0.002,0.014
-4.96920e-03,0.002,-0.022
-4.96912e-03,-0.002,0.01
-4.96904e-03,0.002,-0.018
-4.96896e-03,-0.002,0.018
-4.96888e-03,-0.01,-0.018
-4.96880e-03,0.01,0.014
-4.96872e-03,-0.006,-0.018
-4.96864e-03,0.002,0.014
-4.96856e-03,-0.002,-0.018
-4.96848e-03,-0.006,0.018
-4.96840e-03,-0.006,-0.018
-4.96832e-03,-0.002,0.014
-4.96824e-03,-0.006,-0.022
-4.96816e-03,-0.006,0.014
-4.96808e-03,0.01,-0.022
-4.96800e-03,0.006,0.014
-4.96792e-03,0.002,-0.018
-4.96784e-03,-0.002,0.014
-4.96776e-03,0.006,-0.018
-4.96768e-03,0.002,0.014
-4.96760e-03,-0.002,-0.018
-4.96752e-03,0.002,0.014
-4.96744e-03,-0.018,-0.018
-4.96736e-03,-0.01,0.014
-4.96728e-03,0.002,-0.038
-4.96720e-03,0.002,0.038
-4.96712e-03,-0.002,-0.026
-4.96704e-03,-0.006,0.022
-4.96696e-03,-0.002,-0.018
-4.96688e-03,-0.006,0.014
-4.96680e-03,0.006,-0.018
-4.96672e-03,-0.006,0.018
-4.96664e-03,0.01,-0.018
-4.96656e-03,-0.002,0.01
-4.96648e-03,0.002,-0.018
-4.96640e-03,0.006,0.014
-4.96632e-03,-0.006,-0.014
-4.96624e-03,0.006,0.022
-4.96616e-03,0.002,-0.014
-4.96608e-03,0.01,0.014
-4.96600e-03,-0.006,-0.022
-4.96592e-03,-0.01,0.014
-4.96584e-03,-0.006,-0.018
-4.96576e-03,0.002,0.014
-4.96568e-03,-0.006,-0.018
-4.96560e-03,-0.002,0.014
-4.96552e-03,-0.002,-0.022
-4.96544e-03,-0.01,0.014
-4.96536e-03,0.022,-0.022
-4.96528e-03,-0.01,0.034
-4.96520e-03,-0.002,-0.034
-4.96512e-03,-0.006,0.026
-4.96504e-03,0.01,-0.026
-4.96496e-03,0.01,0.022
-4.96488e-03,0.002,-0.022
-4.96480e-03,0.01,0.022
-4.96472e-03,-0.006,-0.022
-4.96464e-03,0.018,0.022
-4.96456e-03,-0.014,-0.022
-4.96448e-03,0.006,0.026
-4.96440e-03,0.006,-0.034
-4.96432e-03,-0.006,0.022
-4.96424e-03,0.002,-0.022
-4.96416e-03,-0.01,0.018
-4.96408e-03,0.014,-0.014
-4.96400e-03,-0.01,0.022
-4.96392e-03,0.006,-0.014
-4.96384e-03,0.01,0.014
-4.96376e-03,0.002,-0.014
-4.96368e-03,0.01,0.01
-4.96360e-03,-0.006,-0.014
-4.96352e-03,0.006,0.018
-4.96344e-03,0.002,-0.018
-4.96336e-03,0.018,0.014
-4.96328e-03,0.002,-0.014
-4.96320e-03,0.014,0.018
-4.96312e-03,0.002,-0.018
-4.96304e-03,0.002,0.018
-4.96296e-03,-0.002,-0.014
-4.96288e-03,-0.01,0.022
-4.96280e-03,0.006,-0.022
-4.96272e-03,-0.01,0.014
-4.96264e-03,0.002,-0.018
-4.96256e-03,-0.002,0.014
-4.96248e-03,0.002,-0.018
-4.96240e-03,0.006,0.022
-4.96232e-03,0.006,-0.022
-4.96224e-03,0.002,0.014
-4.96216e-03,0.002,-0.018
-4.96208e-03,0.006,0.018
-4.96200e-03,-0.002,-0.018
-4.96192e-03,0.006,0.022
-4.96184e-03,0.006,-0.022
-4.96176e-03,0.006,0.018
-4.96168e-03,0.01,-0.014
-4.96160e-03,-0.002,0.018
-4.96152e-03,-0.002,-0.018
-4.96144e-03,-0.006,0.014
-4.96136e-03,0.002,-0.014
-4.96128e-03,-0.002,0.018
-4.96120e-03,-0.01,-0.018
-4.96112e-03,0.01,0.01
-4.96104e-03,-0.002,-0.014
-4.96096e-03,-0.01,0.014
-4.96088e-03,-0.002,-0.026
-4.96080e-03,0.018,0.026
-4.96072e-03,-0.01,-0.03
-4.96064e-03,0.01,0.03
-4.96056e-03,-0.01,-0.018
-4.96048e-03,0.006,0.022
-4.96040e-03,0.002,-0.03
-4.96032e-03,0.002,0.018
-4.96024e-03,0.01,-0.014
-4.96016e-03,-0.006,0.014
-4.96008e-03,0.006,-0.022
-4.96000e-03,-0.006,0.026
-4.95992e-03,0.002,-0.018
-4.95984e-03,0.002,0.018
-4.95976e-03,-0.01,-0.022
-4.95968e-03,0.006,0.01
-4.95960e-03,-0.014,-0.022
-4.95952e-03,0.014,0.022
-4.95944e-03,-0.006,-0.022
-4.95936e-03,0.014,0.022
-4.95928e-03,-0.014,-0.022
-4.95920e-03,0.006,0.018
-4.95912e-03,-0.002,-0.018
-4.95904e-03,-0.002,0.014
-4.95896e-03,0.014,-0.018
-4.95888e-03,-0.01,0.014
-4.95880e-03,0.006,-0.018
-4.95872e-03,-0.002,0.014
-4.95864e-03,0.01,-0.014
-4.95856e-03,-0.066,0.014
-4.95848e-03,0.01,-0.086
-4.95840e-03,-0.01,0.014
-4.95832e-03,-0.014,-0.114
-4.95824e-03,0.006,0.046
-4.95816e-03,-0.002,-0.022
-4.95808e-03,-0.01,0.018
-4.95800e-03,-0.006,-0.022
-4.95792e-03,0.002,0.014
-4.95784e-03,0.006,-0.022
-4.95776e-03,-0.002,0.014
-4.95768e-03,0.01,-0.014
-4.95760e-03,-0.01,0.014
-4.95752e-03,0.006,-0.018
-4.95744e-03,-0.006,0.01
-4.95736e-03,-0.006,-0.034
-4.95728e-03,0.002,0.022
-4.95720e-03,-0.01,-0.018
-4.95712e-03,-0.002,0.018
-4.95704e-03,-0.002,-0.018
-4.95696e-03,-0.002,0.018
-4.95688e-03,-0.002,-0.018
-4.95680e-03,-0.002,0.014
-4.95672e-03,0.002,-0.014
-4.95664e-03,-0.002,0.014
-4.95656e-03,-0.006,-0.014
-4.95648e-03,0.002,0.01
-4.95640e-03,-0.002,-0.022
-4.95632e-03,-0.002,0.014
-4.95624e-03,0.006,-0.022
-4.95616e-03,0.002,0.018
-4.95608e-03,0.054,-0.018
-4.95600e-03,-0.026,0.018
-4.95592e-03,0.014,-0.058
-4.95584e-03,-0.002,0.082
-4.95576e-03,-0.01,-0.038
-4.95568e-03,0.006,0.026
-4.95560e-03,-0.01,-0.03
-4.95552e-03,-0.002,0.018
-4.95544e-03,-0.006,-0.022
-4.95536e-03,0.002,0.014
-4.95528e-03,-0.002,-0.018
-4.95520e-03,-0.002,0.01
-4.95512e-03,-0.002,-0.018
-4.95504e-03,-0.002,0.018
-4.95496e-03,0.01,-0.018
-4.95488e-03,-0.014,0.014
-4.95480e-03,0.006,-0.018
-4.95472e-03,0.014,0.014
-4.95464e-03,0.014,-0.026
-4.95456e-03,-0.002,0.014
-4.95448e-03,0.014,-0.022
-4.95440e-03,0.01,0.014
-4.95432e-03,0.002,-0.022
-4.95424e-03,-0.002,0.018
-4.95416e-03,-0.01,-0.018
-4.95408e-03,0.01,0.018
-4.95400e-03,-0.002,-0.014
-4.95392e-03,0.002,0.022
-4.95384e-03,-0.002,-0.01
-4.95376e-03,0.006,0.014
-4.95368e-03,0.006,-0.01
-4.95360e-03,0.002,0.018
-4.95352e-03,0.014,-0.014
-4.95344e-03,0.01,0.018
-4.95336e-03,0.01,-0.01
-4.95328e-03,0.014,0.022
-4.95320e-03,0.022,-0.014
-4.95312e-03,0.014,0.018
-4.95304e-03,0.014,-0.01
-4.95296e-03,0.014,0.022
-4.95288e-03,-0.002,-0.01
-4.95280e-03,0.014,0.018
-4.95272e-03,-0.002,-0.01
-4.95264e-03,0.006,0.022
-4.95256e-03,-0.002,-0.014
-4.95248e-03,-0.002,0.022
-4.95240e-03,0.006,-0.014
-4.95232e-03,0.006,0.022
-4.95224e-03,0.006,-0.01
-4.95216e-03,0.002,0.022
-4.95208e-03,0.018,-0.014
-4.95200e-03,0.014,0.022
-4.95192e-03,0.018,-0.014
-4.95184e-03,-0.002,0.022
-4.95176e-03,0.002,-0.014
-4.95168e-03,0.01,0.018
-4.95160e-03,-0.006,-0.014
-4.95152e-03,0.014,0.018
-4.95144e-03,-0.002,-0.014
-4.95136e-03,0.006,0.018
-4.95128e-03,0.002,-0.018
-4.95120e-03,0.002,0.018
-4.95112e-03,0.002,-0.014
-4.95104e-03,-0.006,0.018
-4.95096e-03,0.002,-0.014
-4.95088e-03,-0.002,0.018
-4.95080e-03,-0.002,-0.018
-4.95072e-03,-0.006,0.014
-4.95064e-03,-0.01,-0.03
-4.95056e-03,-0.006,0.014
-4.95048e-03,-0.022,-0.03
-4.95040e-03,-0.026,0.01
-4.95032e-03,-0.054,-0.042
-4.95024e-03,-0.07,0.002
-4.95016e-03,-0.102,-0.09
-4.95008e-03,-0.094,-0.018
-4.95000e-03,-0.102,-0.106
-4.94992e-03,-0.106,-0.07
-4.94984e-03,-0.106,-0.118
-4.94976e-03,-0.11,-0.09
-4.94968e-03,-0.098,-0.118
-4.94960e-03,-0.106,-0.094
-4.94952e-03,-0.086,-0.126
-4.94944e-03,-0.106,-0.086
-4.94936e-03,-0.102,-0.142
-4.94928e-03,-0.114,-0.07
-4.94920e-03,-0.114,-0.13
-4.94912e-03,-0.094,-0.07
-4.94904e-03,-0.106,-0.122
-4.94896e-03,-0.086,-0.074
-4.94888e-03,-0.106,-0.118
-4.94880e-03,-0.094,-0.082
-4.94872e-03,-0.094,-0.118
-4.94864e-03,-0.102,-0.082
-4.94856e-03,-0.082,-0.122
-4.94848e-03,-0.106,-0.078
-4.94840e-03,-0.102,-0.114
-4.94832e-03,-0.098,-0.078
-4.94824e-03,-0.09,-0.118
-4.94816e-03,-0.11,-0.082
-4.94808e-03,-0.09,-0.126
-4.94800e-03,-0.11,-0.054
-4.94792e-03,-0.09,-0.126
-4.94784e-03,-0.094,-0.07
-4.94776e-03,-0.102,-0.114
-4.94768e-03,-0.094,-0.074
-4.94760e-03,-0.102,-0.114
-4.94752e-03,-0.082,-0.078
-4.94744e-03,-0.094,-0.114
-4.94736e-03,-0.094,-0.082
-4.94728e-03,-0.098,-0.114
-4.94720e-03,-0.098,-0.082
-4.94712e-03,-0.086,-0.114
-4.94704e-03,-0.098,-0.074
-4.94696e-03,-0.09,-0.114
-4.94688e-03,-0.102,-0.078
-4.94680e-03,-0.094,-0.11
-4.94672e-03,-0.102,-0.082
-4.94664e-03,-0.094,-0.114
-4.94656e-03,-0.106,-0.082
-4.94648e-03,-0.094,-0.118
-4.94640e-03,-0.094,-0.082
-4.94632e-03,-0.09,-0.11
-4.94624e-03,-0.086,-0.082
-4.94616e-03,-0.098,-0.114
-4.94608e-03,-0.086,-0.082
-4.94600e-03,-0.09,-0.11
-4.94592e-03,-0.098,-0.082
-4.94584e-03,-0.086,-0.11
-4.94576e-03,-0.098,-0.082
-4.94568e-03,-0.086,-0.114
-4.94560e-03,-0.106,-0.082
-4.94552e-03,-0.098,-0.11
-4.94544e-03,-0.11,-0.078
-4.94536e-03,-0.086,-0.118
-4.94528e-03,-0.102,-0.078
-4.94520e-03,-0.102,-0.11
-4.94512e-03,-0.086,-0.086
-4.94504e-03,-0.102,-0.114
-4.94496e-03,-0.09,-0.082
-4.94488e-03,-0.098,-0.114
-4.94480e-03,-0.09,-0.074
-4.94472e-03,-0.078,-0.114
-4.94464e-03,-0.106,-0.074
-4.94456e-03,-0.082,-0.122
-4.94448e-03,-0.106,-0.058
-4.94440e-03,-0.082,-0.114
-4.94432e-03,-0.086,-0.066
-4.94424e-03,-0.082,-0.122
-4.94416e-03,-0.102,-0.07
-4.94408e-03,-0.086,-0.114
-4.94400e-03,-0.094,-0.074
-4.94392e-03,-0.102,-0.11
-4.94384e-03,-0.094,-0.082
-4.94376e-03,-0.094,-0.118
-4.94368e-03,-0.082,-0.078
-4.94360e-03,-0.106,-0.11
-4.94352e-03,-0.094,-0.078
-4.94344e-03,-0.098,-0.114
-4.94336e-03,-0.098,-0.074
-4.94328e-03,-0.098,-0.114
-4.94320e-03,-0.098,-0.074
-4.94312e-03,-0.086,-0.118
-4.94304e-03,-0.102,-0.078
-4.94296e-03,-0.086,-0.11
-4.94288e-03,-0.098,-0.07
-4.94280e-03,-0.082,-0.118
-4.94272e-03,-0.106,-0.082
-4.94264e-03,-0.098,-0.118
-4.94256e-03,-0.094,-0.078
-4.94248e-03,-0.106,-0.11
-4.94240e-03,-0.102,-0.078
-4.94232e-03,-0.106,-0.118
-4.94224e-03,-0.102,-0.082
-4.94216e-03,-0.102,-0.114
-4.94208e-03,-0.09,-0.082
-4.94200e-03,-0.102,-0.118
-4.94192e-03,-0.102,-0.082
-4.94184e-03,-0.094,-0.114
-4.94176e-03,-0.102,-0.082
-4.94168e-03,-0.086,-0.114
-4.94160e-03,-0.098,-0.078
-4.94152e-03,-0.11,-0.114
-4.94144e-03,-0.122,-0.082
-4.94136e-03,-0.094,-0.134
-4.94128e-03,-0.098,-0.058
-4.94120e-03,-0.086,-0.122
-4.94112e-03,-0.102,-0.07
-4.94104e-03,-0.098,-0.122
-4.94096e-03,-0.098,-0.074
-4.94088e-03,-0.102,-0.11
-4.94080e-03,-0.102,-0.074
-4.94072e-03,-0.106,-0.11
-4.94064e-03,-0.094,-0.078
-4.94056e-03,-0.094,-0.114
-4.94048e-03,-0.098,-0.078
-4.94040e-03,-0.086,-0.11
-4.94032e-03,-0.098,-0.078
-4.94024e-03,-0.078,-0.11
-4.94016e-03,-0.094,-0.078
-4.94008e-03,-0.09,-0.114
-4.94000e-03,-0.082,-0.078
-4.93992e-03,-0.098,-0.11
-4.93984e-03,-0.086,-0.078
-4.93976e-03,-0.094,-0.118
-4.93968e-03,-0.082,-0.07
-4.93960e-03,-0.102,-0.11
-4.93952e-03,-0.094,-0.074
-4.93944e-03,-0.09,-0.114
-4.93936e-03,-0.086,-0.07
-4.93928e-03,-0.098,-0.114
-4.93920e-03,-0.106,-0.074
-4.93912e-03,-0.086,-0.114
-4.93904e-03,-0.094,-0.078
-4.93896e-03,-0.078,-0.118
-4.93888e-03,-0.094,-0.074
-4.93880e-03,-0.082,-0.11
